0.00000,0.00000
0.00000,0.00000
0.00000,0.00000
0.00000,0.00000
0.00000,0.00000
0.00000,0.00000
0.00000,0.00000
0.00000,0.00000
0.00000,0.00000
0.00000,0.00000
0.00000,0.00000
0.00000,0.00000
0.00000,0.00000
0.00000,0.00000
0.00000,0.00000
0.00000,0.00000
0.00000,0.00000
0.00000,0.00000
3.15706,1.91807
3.77260,1.76518
4.70013,1.27307
4.81175,1.27301
4.76576,1.27293
4.78092,1.12936
4.79688,1.13681
4.88349,1.17328
4.90778,1.15689
4.92851,1.16623
4.92415,0.87408
5.10074,0.96017
5.13782,1.03662
5.08904,1.14583
5.12233,1.25662
5.15349,1.27076
5.11474,1.30506
5.03606,1.26626
4.96822,1.21304
4.89501,0.95170
5.01096,0.93337
4.97349,0.97904
4.88956,0.95209
4.92499,0.99872
4.92582,0.83189
0.72357,9.49930
0.86700,9.42099
0.98852,9.54271
0.00000,0.00000
0.00000,0.00000
0.73504,8.85464
0.00000,0.00000
0.31447,9.26302
0.31525,9.33450
0.24703,9.39379
0.23751,9.40069
0.26722,9.47280
0.09823,9.39860
0.17981,9.36454
0.14352,9.46543
0.03556,9.46896
0.03097,9.47483
0.06009,9.43910
0.03382,9.44432
-0.06421,9.42954
-0.05532,9.46874
-0.11883,9.50757
-0.03640,9.47892
-0.02012,9.51068
-6.01935,4.36014
-6.79985,2.61260
-6.63419,2.57694
-6.49175,2.53024
-7.44421,1.88072
-7.41005,1.88204
-7.36864,1.84898
-7.34882,1.88132
-7.33012,1.88357
-7.33502,1.81679
-7.21383,1.84491
-7.19241,1.83016
-7.07177,1.81789
-7.09668,2.10502
-7.00546,2.10564
-7.04161,2.08758
-7.07820,2.05479
-7.03495,2.07010
-7.03916,2.10975
-4.56602,-2.20874
-2.39657,-4.74340
-2.25312,-4.74432
-1.92549,-5.20649
-0.87242,-5.98893
-0.77143,-6.00168
-0.72111,-5.98678
-0.68092,-5.99686
-0.62631,-5.98332
-0.58819,-5.95826
-0.98027,-6.97168
-0.93058,-6.96881
-0.97208,-6.91852
-0.94737,-6.92241
-0.91478,-6.89545
-1.02673,-6.84211
-1.15625,-6.84159
-1.15725,-6.81483
-1.18174,-6.77043
-0.29501,-4.26500
0.00000,0.00000
0.00000,0.00000
0.00000,0.00000
0.00000,0.00000
0.00000,0.00000
0.00000,0.00000
0.00000,0.00000
0.00000,0.00000
0.00000,0.00000
0.00000,0.00000
0.00000,0.00000
0.00000,0.00000
0.00000,0.00000
0.00000,0.00000
0.00000,0.00000
0.00000,0.00000
0.00000,0.00000
0.00000,0.00000
0.00000,0.00000
0.00000,0.00000
0.00000,0.00000
0.00000,0.00000
0.00000,0.00000
0.00000,0.00000
0.00000,0.00000
0.00000,0.00000
0.00000,0.00000
0.00000,0.00000
0.00000,0.00000
0.00000,0.00000
0.00000,0.00000
0.00000,0.00000
0.00000,0.00000
0.00000,0.00000
0.00000,0.00000
0.00000,0.00000
0.00000,0.00000
0.00000,0.00000
0.00000,0.00000
0.00000,0.00000
0.00000,0.00000
0.00000,0.00000
0.00000,0.00000
0.00000,0.00000
0.00000,0.00000
