0.00000
0.48175
0.84433
0.99803
0.90483
0.58779
0.12533
-0.36812
-0.77051
-0.98229
-0.95106
-0.68455
-0.24869
0.24869
0.68455
0.95106
0.98229
0.77051
0.36812
-0.12533
-0.58779
-0.90483
-0.99803
-0.84433
-0.48175
-0.00000
0.48175
0.84433
0.99803
0.90483
0.58779
0.12533
-0.36812
-0.77051
-0.98229
-0.95106
-0.68455
-0.24869
0.24869
0.68455
0.95106
0.98229
0.77051
0.36812
-0.12533
-0.58779
-0.90483
-0.99803
-0.84433
-0.48175
-0.00000
0.48175
0.84433
0.99803
0.90483
0.58779
0.12533
-0.36812
-0.77051
-0.98229
-0.95106
-0.68455
-0.24869
0.24869
0.68455
0.95106
0.98229
0.77051
0.36812
-0.12533
-0.58779
-0.90483
-0.99803
-0.84433
-0.48175
-0.00000
0.48175
0.84433
0.99803
0.90483
0.58779
0.12533
-0.36812
-0.77051
-0.98229
-0.95106
-0.68455
-0.24869
0.24869
0.68455
0.95106
0.98229
0.77051
0.36812
-0.12533
-0.58779
-0.90483
-0.99803
-0.84433
-0.48175
-0.00000
0.48175
0.84433
0.99803
0.90483
0.58779
0.12533
-0.36812
-0.77051
-0.98229
-0.95106
-0.68455
-0.24869
0.24869
0.68455
0.95106
0.98229
0.77051
0.36812
-0.12533
-0.58779
-0.90483
-0.99803
-0.84433
-0.48175
-0.00000
0.48175
0.84433
0.99803
0.90483
0.58779
0.12533
-0.36812
-0.77051
-0.98229
-0.95106
-0.68455
-0.24869
0.24869
0.68455
0.95106
0.98229
0.77051
0.36812
-0.12533
-0.58779
-0.90483
-0.99803
-0.84433
-0.48175
-0.00000
0.48175
0.84433
0.99803
0.90483
0.58779
0.12533
-0.36812
-0.77051
-0.98229
-0.95106
-0.68455
-0.24869
0.24869
0.68455
0.95106
0.98229
0.77051
0.36812
-0.12533
-0.58779
-0.90483
-0.99803
-0.84433
-0.48175
0.00000
0.48175
0.84433
0.99803
0.90483
0.58779
0.12533
-0.36812
-0.77051
-0.98229
-0.95106
-0.68455
-0.24869
0.24869
0.68455
0.95106
0.98229
0.77051
0.36812
-0.12533
-0.58779
-0.90483
-0.99803
-0.84433
-0.48175
-0.00000
0.48175
0.84433
0.99803
0.90483
0.58779
0.12533
-0.36812
-0.77051
-0.98229
-0.95106
-0.68455
-0.24869
0.24869
0.68455
0.95106
0.98229
0.77051
0.36812
-0.12533
-0.58779
-0.90483
-0.99803
-0.84433
-0.48175
-0.00000
0.48175
0.84433
0.99803
0.90483
0.58779
0.12533
-0.36812
-0.77051
-0.98229
-0.95106
-0.68455
-0.24869
0.24869
0.68455
0.95106
0.98229
0.77051
0.36812
-0.12533
-0.58779
-0.90483
-0.99803
-0.84433
-0.48175
-0.00000
0.48175
0.84433
0.99803
0.90483
0.58779
0.12533
-0.36812
-0.77051
-0.98229
-0.95106
-0.68455
-0.24869
0.24869
0.68455
0.95106
0.98229
0.77051
0.36812
-0.12533
-0.58779
-0.90483
-0.99803
-0.84433
-0.48175
0.00000
0.48175
0.84433
0.99803
0.90483
0.58779
0.12533
-0.36812
-0.77051
-0.98229
-0.95106
-0.68455
-0.24869
0.24869
0.68455
0.95106
0.98229
0.77051
0.36812
-0.12533
-0.58779
-0.90483
-0.99803
-0.84433
-0.48175
-0.00000
0.48175
0.84433
0.99803
0.90483
0.58779
0.12533
-0.36812
-0.77051
-0.98229
-0.95106
-0.68455
-0.24869
0.24869
0.68455
0.95106
0.98229
0.77051
0.36812
-0.12533
-0.58779
-0.90483
-0.99803
-0.84433
-0.48175
0.00000
0.48175
0.84433
0.99803
0.90483
0.58779
0.12533
-0.36812
-0.77051
-0.98229
-0.95106
-0.68455
-0.24869
0.24869
0.68455
0.95106
0.98229
0.77051
0.36812
-0.12533
-0.58779
-0.90483
-0.99803
-0.84433
-0.48175
0.00000
0.48175
0.84433
0.99803
0.90483
0.58779
0.12533
-0.36812
-0.77051
-0.98229
-0.95106
-0.68455
-0.24869
0.24869
0.68455
0.95106
0.98229
0.77051
0.36812
-0.12533
-0.58779
-0.90483
-0.99803
-0.84433
-0.48175
-0.00000
0.48175
0.84433
0.99803
0.90483
0.58779
0.12533
-0.36812
-0.77051
-0.98229
-0.95106
-0.68455
-0.24869
0.24869
0.68455
0.95106
0.98229
0.77051
0.36812
-0.12533
-0.58779
-0.90483
-0.99803
-0.84433
-0.48175
-0.00000
0.48175
0.84433
0.99803
0.90483
0.58779
0.12533
-0.36812
-0.77051
-0.98229
-0.95106
-0.68455
-0.24869
0.24869
0.68455
0.95106
0.98229
0.77051
0.36812
-0.12533
-0.58779
-0.90483
-0.99803
-0.84433
-0.48175
-0.00000
0.48175
0.84433
0.99803
0.90483
0.58779
0.12533
-0.36812
-0.77051
-0.98229
-0.95106
-0.68455
-0.24869
0.24869
0.68455
0.95106
0.98229
0.77051
0.36812
-0.12533
-0.58779
-0.90483
-0.99803
-0.84433
-0.48175
-0.00000
0.48175
0.84433
0.99803
0.90483
0.58779
0.12533
-0.36812
-0.77051
-0.98229
-0.95106
-0.68455
-0.24869
0.24869
0.68455
0.95106
0.98229
0.77051
0.36812
-0.12533
-0.58779
-0.90483
-0.99803
-0.84433
-0.48175
0.00000
0.48175
0.84433
0.99803
0.90483
0.58779
0.12533
-0.36812
-0.77051
-0.98229
-0.95106
-0.68455
-0.24869
0.24869
0.68455
0.95106
0.98229
0.77051
0.36812
-0.12533
-0.58779
-0.90483
-0.99803
-0.84433
-0.48175
-0.00000
0.48175
0.84433
0.99803
0.90483
0.58779
0.12533
-0.36812
-0.77051
-0.98229
-0.95106
-0.68455
-0.24869
0.24869
0.68455
0.95106
0.98229
0.77051
0.36812
-0.12533
-0.58779
-0.90483
-0.99803
-0.84433
-0.48175
0.00000
0.48175
0.84433
0.99803
0.90483
0.58779
0.12533
-0.36812
-0.77051
-0.98229
-0.95106
-0.68455
-0.24869
0.24869
0.68455
0.95106
0.98229
0.77051
0.36812
-0.12533
-0.58779
-0.90483
-0.99803
-0.84433
-0.48175
0.00000
0.48175
0.84433
0.99803
0.90483
0.58779
0.12533
-0.36812
-0.77051
-0.98229
-0.95106
-0.68455
-0.24869
0.24869
0.68455
0.95106
0.98229
0.77051
0.36812
-0.12533
-0.58779
-0.90483
-0.99803
-0.84433
-0.48175
0.00000
0.48175
0.84433
0.99803
0.90483
0.58779
0.12533
-0.36812
-0.77051
-0.98229
-0.95106
-0.68455
-0.24869
0.24869
0.68455
0.95106
0.98229
0.77051
0.36812
-0.12533
-0.58779
-0.90483
-0.99803
-0.84433
-0.48175
-0.00000
0.48175
0.84433
0.99803
0.90483
0.58779
0.12533
-0.36812
-0.77051
-0.98229
-0.95106
-0.68455
-0.24869
0.24869
0.68455
0.95106
0.98229
0.77051
0.36812
-0.12533
-0.58779
-0.90483
-0.99803
-0.84433
-0.48175
0.00000
0.48175
0.84433
0.99803
0.90483
0.58779
0.12533
-0.36812
-0.77051
-0.98229
-0.95106
-0.68455
-0.24869
0.24869
0.68455
0.95106
0.98229
0.77051
0.36812
-0.12533
-0.58779
-0.90483
-0.99803
-0.84433
-0.48175
0.00000
0.48175
0.84433
0.99803
0.90483
0.58779
0.12533
-0.36812
-0.77051
-0.98229
-0.95106
-0.68455
-0.24869
0.24869
0.68455
0.95106
0.98229
0.77051
0.36812
-0.12533
-0.58779
-0.90483
-0.99803
-0.84433
-0.48175
0.00000
0.48175
0.84433
0.99803
0.90483
0.58779
0.12533
-0.36812
-0.77051
-0.98229
-0.95106
-0.68455
-0.24869
0.24869
0.68455
0.95106
0.98229
0.77051
0.36812
-0.12533
-0.58779
-0.90483
-0.99803
-0.84433
-0.48175
0.00000
0.48175
0.84433
0.99803
0.90483
0.58779
0.12533
-0.36812
-0.77051
-0.98229
-0.95106
-0.68455
-0.24869
0.24869
0.68455
0.95106
0.98229
0.77051
0.36812
-0.12533
-0.58779
-0.90483
-0.99803
-0.84433
-0.48175
0.00000
0.48175
0.84433
0.99803
0.90483
0.58779
0.12533
-0.36812
-0.77051
-0.98229
-0.95106
-0.68455
-0.24869
0.24869
0.68455
0.95106
0.98229
0.77051
0.36812
-0.12533
-0.58779
-0.90483
-0.99803
-0.84433
-0.48175
-0.00000
0.48175
0.84433
0.99803
0.90483
0.58779
0.12533
-0.36812
-0.77051
-0.98229
-0.95106
-0.68455
-0.24869
0.24869
0.68455
0.95106
0.98229
0.77051
0.36812
-0.12533
-0.58779
-0.90483
-0.99803
-0.84433
-0.48175
-0.00000
0.48175
0.84433
0.99803
0.90483
0.58779
0.12533
-0.36812
-0.77051
-0.98229
-0.95106
-0.68455
-0.24869
0.24869
0.68455
0.95106
0.98229
0.77051
0.36812
-0.12533
-0.58779
-0.90483
-0.99803
-0.84433
-0.48175
-0.00000
0.48175
0.84433
0.99803
0.90483
0.58779
0.12533
-0.36812
-0.77051
-0.98229
-0.95106
-0.68455
-0.24869
0.24869
0.68455
0.95106
0.98229
0.77051
0.36812
-0.12533
-0.58779
-0.90483
-0.99803
-0.84433
-0.48175
-0.00000
0.48175
0.84433
0.99803
0.90483
0.58779
0.12533
-0.36812
-0.77051
-0.98229
-0.95106
-0.68455
-0.24869
0.24869
0.68455
0.95106
0.98229
0.77051
0.36812
-0.12533
-0.58779
-0.90483
-0.99803
-0.84433
-0.48175
-0.00000
0.48175
0.84433
0.99803
0.90483
0.58779
0.12533
-0.36812
-0.77051
-0.98229
-0.95106
-0.68455
-0.24869
0.24869
0.68455
0.95106
0.98229
0.77051
0.36812
-0.12533
-0.58779
-0.90483
-0.99803
-0.84433
-0.48175
-0.00000
0.48175
0.84433
0.99803
0.90483
0.58779
0.12533
-0.36812
-0.77051
-0.98229
-0.95106
-0.68455
-0.24869
0.24869
0.68455
0.95106
0.98229
0.77051
0.36812
-0.12533
-0.58779
-0.90483
-0.99803
-0.84433
-0.48175
-0.00000
0.48175
0.84433
0.99803
0.90483
0.58779
0.12533
-0.36812
-0.77051
-0.98229
-0.95106
-0.68455
-0.24869
0.24869
0.68455
0.95106
0.98229
0.77051
0.36812
-0.12533
-0.58779
-0.90483
-0.99803
-0.84433
-0.48175
-0.00000
0.48175
0.84433
0.99803
0.90483
0.58779
0.12533
-0.36812
-0.77051
-0.98229
-0.95106
-0.68455
-0.24869
0.24869
0.68455
0.95106
0.98229
0.77051
0.36812
-0.12533
-0.58779
-0.90483
-0.99803
-0.84433
-0.48175
0.00000
0.48175
0.84433
0.99803
0.90483
0.58779
0.12533
-0.36812
-0.77051
-0.98229
-0.95106
-0.68455
-0.24869
0.24869
0.68455
0.95106
0.98229
0.77051
0.36812
-0.12533
-0.58779
-0.90483
-0.99803
-0.84433
-0.48175
-0.00000
0.48175
0.84433
0.99803
0.90483
0.58779
0.12533
-0.36812
-0.77051
-0.98229
-0.95106
-0.68455
-0.24869
0.24869
0.68455
0.95106
0.98229
0.77051
0.36812
-0.12533
-0.58779
-0.90483
-0.99803
-0.84433
-0.48175
-0.00000
0.48175
0.84433
0.99803
0.90483
0.58779
0.12533
-0.36812
-0.77051
-0.98229
-0.95106
-0.68455
-0.24869
0.24869
0.68455
0.95106
0.98229
0.77051
0.36812
-0.12533
-0.58779
-0.90483
-0.99803
-0.84433
-0.48175
-0.00000
0.48175
0.84433
0.99803
0.90483
0.58779
0.12533
-0.36812
-0.77051
-0.98229
-0.95106
-0.68455
-0.24869
0.24869
0.68455
0.95106
0.98229
0.77051
0.36812
-0.12533
-0.58779
-0.90483
-0.99803
-0.84433
-0.48175
0.00000
0.48175
0.84433
0.99803
0.90483
0.58779
0.12533
-0.36812
-0.77051
-0.98229
-0.95106
-0.68455
-0.24869
0.24869
0.68455
0.95106
0.98229
0.77051
0.36812
-0.12533
-0.58779
-0.90483
-0.99803
-0.84433
-0.48175
-0.00000
0.48175
0.84433
0.99803
0.90483
0.58779
0.12533
-0.36812
-0.77051
-0.98229
-0.95106
-0.68455
-0.24869
0.24869
0.68455
0.95106
0.98229
0.77051
0.36812
-0.12533
-0.58779
-0.90483
-0.99803
-0.84433
-0.48175
0.00000
0.48175
0.84433
0.99803
0.90483
0.58779
0.12533
-0.36812
-0.77051
-0.98229
-0.95106
-0.68455
-0.24869
0.24869
0.68455
0.95106
0.98229
0.77051
0.36812
-0.12533
-0.58779
-0.90483
-0.99803
-0.84433
-0.48175
-0.00000
0.48175
0.84433
0.99803
0.90483
0.58779
0.12533
-0.36812
-0.77051
-0.98229
-0.95106
-0.68455
-0.24869
0.24869
0.68455
0.95106
0.98229
0.77051
0.36812
-0.12533
-0.58779
-0.90483
-0.99803
-0.84433
-0.48175
0.00000
0.48175
0.84433
0.99803
0.90483
0.58779
0.12533
-0.36812
-0.77051
-0.98229
-0.95106
-0.68455
-0.24869
0.24869
0.68455
0.95106
0.98229
0.77051
0.36812
-0.12533
-0.58779
-0.90483
-0.99803
-0.84433
-0.48175
0.00000
0.48175
0.84433
0.99803
0.90483
0.58779
0.12533
-0.36812
-0.77051
-0.98229
-0.95106
-0.68455
-0.24869
0.24869
0.68455
0.95106
0.98229
0.77051
0.36812
-0.12533
-0.58779
-0.90483
-0.99803
-0.84433
-0.48175
-0.00000
0.48175
0.84433
0.99803
0.90483
0.58779
0.12533
-0.36812
-0.77051
-0.98229
-0.95106
-0.68455
-0.24869
0.24869
0.68455
0.95106
0.98229
0.77051
0.36812
-0.12533
-0.58779
-0.90483
-0.99803
-0.84433
-0.48175
0.00000
0.48175
0.84433
0.99803
0.90483
0.58779
0.12533
-0.36812
-0.77051
-0.98229
-0.95106
-0.68455
-0.24869
0.24869
0.68455
0.95106
0.98229
0.77051
0.36812
-0.12533
-0.58779
-0.90483
-0.99803
-0.84433
-0.48175
0.00000
0.48175
0.84433
0.99803
0.90483
0.58779
0.12533
-0.36812
-0.77051
-0.98229
-0.95106
-0.68455
-0.24869
0.24869
0.68455
0.95106
0.98229
0.77051
0.36812
-0.12533
-0.58779
-0.90483
-0.99803
-0.84433
-0.48175
0.00000
0.48175
0.84433
0.99803
0.90483
0.58779
0.12533
-0.36812
-0.77051
-0.98229
-0.95106
-0.68455
-0.24869
0.24869
0.68455
0.95106
0.98229
0.77051
0.36812
-0.12533
-0.58779
-0.90483
-0.99803
-0.84433
-0.48175
0.00000
0.48175
0.84433
0.99803
0.90483
0.58779
0.12533
-0.36812
-0.77051
-0.98229
-0.95106
-0.68455
-0.24869
0.24869
0.68455
0.95106
0.98229
0.77051
0.36812
-0.12533
-0.58779
-0.90483
-0.99803
-0.84433
-0.48175
-0.00000
0.48175
0.84433
0.99803
0.90483
0.58779
0.12533
-0.36812
-0.77051
-0.98229
-0.95106
-0.68455
-0.24869
0.24869
0.68455
0.95106
0.98229
0.77051
0.36812
-0.12533
-0.58779
-0.90483
-0.99803
-0.84433
-0.48175
0.00000
0.48175
0.84433
0.99803
0.90483
0.58779
0.12533
-0.36812
-0.77051
-0.98229
-0.95106
-0.68455
-0.24869
0.24869
0.68455
0.95106
0.98229
0.77051
0.36812
-0.12533
-0.58779
-0.90483
-0.99803
-0.84433
-0.48175
0.00000
0.48175
0.84433
0.99803
0.90483
0.58779
0.12533
-0.36812
-0.77051
-0.98229
-0.95106
-0.68455
-0.24869
0.24869
0.68455
0.95106
0.98229
0.77051
0.36812
-0.12533
-0.58779
-0.90483
-0.99803
-0.84433
-0.48175
0.00000
0.48175
0.84433
0.99803
0.90483
0.58779
0.12533
-0.36812
-0.77051
-0.98229
-0.95106
-0.68455
-0.24869
0.24869
0.68455
0.95106
0.98229
0.77051
0.36812
-0.12533
-0.58779
-0.90483
-0.99803
-0.84433
-0.48175
0.00000
0.48175
0.84433
0.99803
0.90483
0.58779
0.12533
-0.36812
-0.77051
-0.98229
-0.95106
-0.68455
-0.24869
0.24869
0.68455
0.95106
0.98229
0.77051
0.36812
-0.12533
-0.58779
-0.90483
-0.99803
-0.84433
-0.48175
0.00000
0.48175
0.84433
0.99803
0.90483
0.58779
0.12533
-0.36812
-0.77051
-0.98229
-0.95106
-0.68455
-0.24869
0.24869
0.68455
0.95106
0.98229
0.77051
0.36812
-0.12533
-0.58779
-0.90483
-0.99803
-0.84433
-0.48175
0.00000
0.48175
0.84433
0.99803
0.90483
0.58779
0.12533
-0.36812
-0.77051
-0.98229
-0.95106
-0.68455
-0.24869
0.24869
0.68455
0.95106
0.98229
0.77051
0.36812
-0.12533
-0.58779
-0.90483
-0.99803
-0.84433
-0.48175
-0.00000
0.48175
0.84433
0.99803
0.90483
0.58779
0.12533
-0.36812
-0.77051
-0.98229
-0.95106
-0.68455
-0.24869
0.24869
0.68455
0.95106
0.98229
0.77051
0.36812
-0.12533
-0.58779
-0.90483
-0.99803
-0.84433
-0.48175
-0.00000
0.48175
0.84433
0.99803
0.90483
0.58779
0.12533
-0.36812
-0.77051
-0.98229
-0.95106
-0.68455
-0.24869
0.24869
0.68455
0.95106
0.98229
0.77051
0.36812
-0.12533
-0.58779
-0.90483
-0.99803
-0.84433
-0.48175
-0.00000
0.48175
0.84433
0.99803
0.90483
0.58779
0.12533
-0.36812
-0.77051
-0.98229
-0.95106
-0.68455
-0.24869
0.24869
0.68455
0.95106
0.98229
0.77051
0.36812
-0.12533
-0.58779
-0.90483
-0.99803
-0.84433
-0.48175
-0.00000
0.48175
0.84433
0.99803
0.90483
0.58779
0.12533
-0.36812
-0.77051
-0.98229
-0.95106
-0.68455
-0.24869
0.24869
0.68455
0.95106
0.98229
0.77051
0.36812
-0.12533
-0.58779
-0.90483
-0.99803
-0.84433
-0.48175
-0.00000
0.48175
0.84433
0.99803
0.90483
0.58779
0.12533
-0.36812
-0.77051
-0.98229
-0.95106
-0.68455
-0.24869
0.24869
0.68455
0.95106
0.98229
0.77051
0.36812
-0.12533
-0.58779
-0.90483
-0.99803
-0.84433
-0.48175
-0.00000
0.48175
0.84433
0.99803
0.90483
0.58779
0.12533
-0.36812
-0.77051
-0.98229
-0.95106
-0.68455
-0.24869
0.24869
0.68455
0.95106
0.98229
0.77051
0.36812
-0.12533
-0.58779
-0.90483
-0.99803
-0.84433
-0.48175
-0.00000
0.48175
0.84433
0.99803
0.90483
0.58779
0.12533
-0.36812
-0.77051
-0.98229
-0.95106
-0.68455
-0.24869
0.24869
0.68455
0.95106
0.98229
0.77051
0.36812
-0.12533
-0.58779
-0.90483
-0.99803
-0.84433
-0.48175
-0.00000
0.48175
0.84433
0.99803
0.90483
0.58779
0.12533
-0.36812
-0.77051
-0.98229
-0.95106
-0.68455
-0.24869
0.24869
0.68455
0.95106
0.98229
0.77051
0.36812
-0.12533
-0.58779
-0.90483
-0.99803
-0.84433
-0.48175
-0.00000
0.48175
0.84433
0.99803
0.90483
0.58779
0.12533
-0.36812
-0.77051
-0.98229
-0.95106
-0.68455
-0.24869
0.24869
0.68455
0.95106
0.98229
0.77051
0.36812
-0.12533
-0.58779
-0.90483
-0.99803
-0.84433
-0.48175
-0.00000
0.48175
0.84433
0.99803
0.90483
0.58779
0.12533
-0.36812
-0.77051
-0.98229
-0.95106
-0.68455
-0.24869
0.24869
0.68455
0.95106
0.98229
0.77051
0.36812
-0.12533
-0.58779
-0.90483
-0.99803
-0.84433
-0.48175
-0.00000
0.48175
0.84433
0.99803
0.90483
0.58779
0.12533
-0.36812
-0.77051
-0.98229
-0.95106
-0.68455
-0.24869
0.24869
0.68455
0.95106
0.98229
0.77051
0.36812
-0.12533
-0.58779
-0.90483
-0.99803
-0.84433
-0.48175
0.00000
0.48175
0.84433
0.99803
0.90483
0.58779
0.12533
-0.36812
-0.77051
-0.98229
-0.95106
-0.68455
-0.24869
0.24869
0.68455
0.95106
0.98229
0.77051
0.36812
-0.12533
-0.58779
-0.90483
-0.99803
-0.84433
-0.48175
-0.00000
0.48175
0.84433
0.99803
0.90483
0.58779
0.12533
-0.36812
-0.77051
-0.98229
-0.95106
-0.68455
-0.24869
0.24869
0.68455
0.95106
0.98229
0.77051
0.36812
-0.12533
-0.58779
-0.90483
-0.99803
-0.84433
-0.48175
-0.00000
0.48175
0.84433
0.99803
0.90483
0.58779
0.12533
-0.36812
-0.77051
-0.98229
-0.95106
-0.68455
-0.24869
0.24869
0.68455
0.95106
0.98229
0.77051
0.36812
-0.12533
-0.58779
-0.90483
-0.99803
-0.84433
-0.48175
-0.00000
0.48175
0.84433
0.99803
0.90483
0.58779
0.12533
-0.36812
-0.77051
-0.98229
-0.95106
-0.68455
-0.24869
0.24869
0.68455
0.95106
0.98229
0.77051
0.36812
-0.12533
-0.58779
-0.90483
-0.99803
-0.84433
-0.48175
-0.00000
0.48175
0.84433
0.99803
0.90483
0.58779
0.12533
-0.36812
-0.77051
-0.98229
-0.95106
-0.68455
-0.24869
0.24869
0.68455
0.95106
0.98229
0.77051
0.36812
-0.12533
-0.58779
-0.90483
-0.99803
-0.84433
-0.48175
0.00000
0.48175
0.84433
0.99803
0.90483
0.58779
0.12533
-0.36812
-0.77051
-0.98229
-0.95106
-0.68455
-0.24869
0.24869
0.68455
0.95106
0.98229
0.77051
0.36812
-0.12533
-0.58779
-0.90483
-0.99803
-0.84433
-0.48175
-0.00000
0.48175
0.84433
0.99803
0.90483
0.58779
0.12533
-0.36812
-0.77051
-0.98229
-0.95106
-0.68455
-0.24869
0.24869
0.68455
0.95106
0.98229
0.77051
0.36812
-0.12533
-0.58779
-0.90483
-0.99803
-0.84433
-0.48175
-0.00000
0.48175
0.84433
0.99803
0.90483
0.58779
0.12533
-0.36812
-0.77051
-0.98229
-0.95106
-0.68455
-0.24869
0.24869
0.68455
0.95106
0.98229
0.77051
0.36812
-0.12533
-0.58779
-0.90483
-0.99803
-0.84433
-0.48175
0.00000
0.48175
0.84433
0.99803
0.90483
0.58779
0.12533
-0.36812
-0.77051
-0.98229
-0.95106
-0.68455
-0.24869
0.24869
0.68455
0.95106
0.98229
0.77051
0.36812
-0.12533
-0.58779
-0.90483
-0.99803
-0.84433
-0.48175
-0.00000
0.48175
0.84433
0.99803
0.90483
0.58779
0.12533
-0.36812
-0.77051
-0.98229
-0.95106
-0.68455
-0.24869
0.24869
0.68455
0.95106
0.98229
0.77051
0.36812
-0.12533
-0.58779
-0.90483
-0.99803
-0.84433
-0.48175
-0.00000
0.48175
0.84433
0.99803
0.90483
0.58779
0.12533
-0.36812
-0.77051
-0.98229
-0.95106
-0.68455
-0.24869
0.24869
0.68455
0.95106
0.98229
0.77051
0.36812
-0.12533
-0.58779
-0.90483
-0.99803
-0.84433
-0.48175
-0.00000
0.48175
0.84433
0.99803
0.90483
0.58779
0.12533
-0.36812
-0.77051
-0.98229
-0.95106
-0.68455
-0.24869
0.24869
0.68455
0.95106
0.98229
0.77051
0.36812
-0.12533
-0.58779
-0.90483
-0.99803
-0.84433
-0.48175
0.00000
0.48175
0.84433
0.99803
0.90483
0.58779
0.12533
-0.36812
-0.77051
-0.98229
-0.95106
-0.68455
-0.24869
0.24869
0.68455
0.95106
0.98229
0.77051
0.36812
-0.12533
-0.58779
-0.90483
-0.99803
-0.84433
-0.48175
0.00000
0.48175
0.84433
0.99803
0.90483
0.58779
0.12533
-0.36812
-0.77051
-0.98229
-0.95106
-0.68455
-0.24869
0.24869
0.68455
0.95106
0.98229
0.77051
0.36812
-0.12533
-0.58779
-0.90483
-0.99803
-0.84433
-0.48175
-0.00000
0.48175
0.84433
0.99803
0.90483
0.58779
0.12533
-0.36812
-0.77051
-0.98229
-0.95106
-0.68455
-0.24869
0.24869
0.68455
0.95106
0.98229
0.77051
0.36812
-0.12533
-0.58779
-0.90483
-0.99803
-0.84433
-0.48175
-0.00000
0.48175
0.84433
0.99803
0.90483
0.58779
0.12533
-0.36812
-0.77051
-0.98229
-0.95106
-0.68455
-0.24869
0.24869
0.68455
0.95106
0.98229
0.77051
0.36812
-0.12533
-0.58779
-0.90483
-0.99803
-0.84433
-0.48175
0.00000
0.48175
0.84433
0.99803
0.90483
0.58779
0.12533
-0.36812
-0.77051
-0.98229
-0.95106
-0.68455
-0.24869
0.24869
0.68455
0.95106
0.98229
0.77051
0.36812
-0.12533
-0.58779
-0.90483
-0.99803
-0.84433
-0.48175
0.00000
0.48175
0.84433
0.99803
0.90483
0.58779
0.12533
-0.36812
-0.77051
-0.98229
-0.95106
-0.68455
-0.24869
0.24869
0.68455
0.95106
0.98229
0.77051
0.36812
-0.12533
-0.58779
-0.90483
-0.99803
-0.84433
-0.48175
0.00000
0.48175
0.84433
0.99803
0.90483
0.58779
0.12533
-0.36812
-0.77051
-0.98229
-0.95106
-0.68455
-0.24869
0.24869
0.68455
0.95106
0.98229
0.77051
0.36812
-0.12533
-0.58779
-0.90483
-0.99803
-0.84433
-0.48175
-0.00000
0.48175
0.84433
0.99803
0.90483
0.58779
0.12533
-0.36812
-0.77051
-0.98229
-0.95106
-0.68455
-0.24869
0.24869
0.68455
0.95106
0.98229
0.77051
0.36812
-0.12533
-0.58779
-0.90483
-0.99803
-0.84433
-0.48175
-0.00000
0.48175
0.84433
0.99803
0.90483
0.58779
0.12533
-0.36812
-0.77051
-0.98229
-0.95106
-0.68455
-0.24869
0.24869
0.68455
0.95106
0.98229
0.77051
0.36812
-0.12533
-0.58779
-0.90483
-0.99803
-0.84433
-0.48175
0.00000
0.48175
0.84433
0.99803
0.90483
0.58779
0.12533
-0.36812
-0.77051
-0.98229
-0.95106
-0.68455
-0.24869
0.24869
0.68455
0.95106
0.98229
0.77051
0.36812
-0.12533
-0.58779
-0.90483
-0.99803
-0.84433
-0.48175
0.00000
0.48175
0.84433
0.99803
0.90483
0.58779
0.12533
-0.36812
-0.77051
-0.98229
-0.95106
-0.68455
-0.24869
0.24869
0.68455
0.95106
0.98229
0.77051
0.36812
-0.12533
-0.58779
-0.90483
-0.99803
-0.84433
-0.48175
0.00000
0.48175
0.84433
0.99803
0.90483
0.58779
0.12533
-0.36812
-0.77051
-0.98229
-0.95106
-0.68455
-0.24869
0.24869
0.68455
0.95106
0.98229
0.77051
0.36812
-0.12533
-0.58779
-0.90483
-0.99803
-0.84433
-0.48175
-0.00000
0.48175
0.84433
0.99803
0.90483
0.58779
0.12533
-0.36812
-0.77051
-0.98229
-0.95106
-0.68455
-0.24869
0.24869
0.68455
0.95106
0.98229
0.77051
0.36812
-0.12533
-0.58779
-0.90483
-0.99803
-0.84433
-0.48175
-0.00000
0.48175
0.84433
0.99803
0.90483
0.58779
0.12533
-0.36812
-0.77051
-0.98229
-0.95106
-0.68455
-0.24869
0.24869
0.68455
0.95106
0.98229
0.77051
0.36812
-0.12533
-0.58779
-0.90483
-0.99803
-0.84433
-0.48175
0.00000
0.48175
0.84433
0.99803
0.90483
0.58779
0.12533
-0.36812
-0.77051
-0.98229
-0.95106
-0.68455
-0.24869
0.24869
0.68455
0.95106
0.98229
0.77051
0.36812
-0.12533
-0.58779
-0.90483
-0.99803
-0.84433
-0.48175
0.00000
0.48175
0.84433
0.99803
0.90483
0.58779
0.12533
-0.36812
-0.77051
-0.98229
-0.95106
-0.68455
-0.24869
0.24869
0.68455
0.95106
0.98229
0.77051
0.36812
-0.12533
-0.58779
-0.90483
-0.99803
-0.84433
-0.48175
0.00000
0.48175
0.84433
0.99803
0.90483
0.58779
0.12533
-0.36812
-0.77051
-0.98229
-0.95106
-0.68455
-0.24869
0.24869
0.68455
0.95106
0.98229
0.77051
0.36812
-0.12533
-0.58779
-0.90483
-0.99803
-0.84433
-0.48175
0.00000
0.48175
0.84433
0.99803
0.90483
0.58779
0.12533
-0.36812
-0.77051
-0.98229
-0.95106
-0.68455
-0.24869
0.24869
0.68455
0.95106
0.98229
0.77051
0.36812
-0.12533
-0.58779
-0.90483
-0.99803
-0.84433
-0.48175
-0.00000
0.48175
0.84433
0.99803
0.90483
0.58779
0.12533
-0.36812
-0.77051
-0.98229
-0.95106
-0.68455
-0.24869
0.24869
0.68455
0.95106
0.98229
0.77051
0.36812
-0.12533
-0.58779
-0.90483
-0.99803
-0.84433
-0.48175
0.00000
0.48175
0.84433
0.99803
0.90483
0.58779
0.12533
-0.36812
-0.77051
-0.98229
-0.95106
-0.68455
-0.24869
0.24869
0.68455
0.95106
0.98229
0.77051
0.36812
-0.12533
-0.58779
-0.90483
-0.99803
-0.84433
-0.48175
0.00000
0.48175
0.84433
0.99803
0.90483
0.58779
0.12533
-0.36812
-0.77051
-0.98229
-0.95106
-0.68455
-0.24869
0.24869
0.68455
0.95106
0.98229
0.77051
0.36812
-0.12533
-0.58779
-0.90483
-0.99803
-0.84433
-0.48175
0.00000
0.48175
0.84433
0.99803
0.90483
0.58779
0.12533
-0.36812
-0.77051
-0.98229
-0.95106
-0.68455
-0.24869
0.24869
0.68455
0.95106
0.98229
0.77051
0.36812
-0.12533
-0.58779
-0.90483
-0.99803
-0.84433
-0.48175
0.00000
0.48175
0.84433
0.99803
0.90483
0.58779
0.12533
-0.36812
-0.77051
-0.98229
-0.95106
-0.68455
-0.24869
0.24869
0.68455
0.95106
0.98229
0.77051
0.36812
-0.12533
-0.58779
-0.90483
-0.99803
-0.84433
-0.48175
-0.00000
0.48175
0.84433
0.99803
0.90483
0.58779
0.12533
-0.36812
-0.77051
-0.98229
-0.95106
-0.68455
-0.24869
0.24869
0.68455
0.95106
0.98229
0.77051
0.36812
-0.12533
-0.58779
-0.90483
-0.99803
-0.84433
-0.48175
0.00000
0.48175
0.84433
0.99803
0.90483
0.58779
0.12533
-0.36812
-0.77051
-0.98229
-0.95106
-0.68455
-0.24869
0.24869
0.68455
0.95106
0.98229
0.77051
0.36812
-0.12533
-0.58779
-0.90483
-0.99803
-0.84433
-0.48175
0.00000
0.48175
0.84433
0.99803
0.90483
0.58779
0.12533
-0.36812
-0.77051
-0.98229
-0.95106
-0.68455
-0.24869
0.24869
0.68455
0.95106
0.98229
0.77051
0.36812
-0.12533
-0.58779
-0.90483
-0.99803
-0.84433
-0.48175
0.00000
0.48175
0.84433
0.99803
0.90483
0.58779
0.12533
-0.36812
-0.77051
-0.98229
-0.95106
-0.68455
-0.24869
0.24869
0.68455
0.95106
0.98229
0.77051
0.36812
-0.12533
-0.58779
-0.90483
-0.99803
-0.84433
-0.48175
0.00000
0.48175
0.84433
0.99803
0.90483
0.58779
0.12533
-0.36812
-0.77051
-0.98229
-0.95106
-0.68455
-0.24869
0.24869
0.68455
0.95106
0.98229
0.77051
0.36812
-0.12533
-0.58779
-0.90483
-0.99803
-0.84433
-0.48175
-0.00000
0.48175
0.84433
0.99803
0.90483
0.58779
0.12533
-0.36812
-0.77051
-0.98229
-0.95106
-0.68455
-0.24869
0.24869
0.68455
0.95106
0.98229
0.77051
0.36812
-0.12533
-0.58779
-0.90483
-0.99803
-0.84433
-0.48175
0.00000
0.48175
0.84433
0.99803
0.90483
0.58779
0.12533
-0.36812
-0.77051
-0.98229
-0.95106
-0.68455
-0.24869
0.24869
0.68455
0.95106
0.98229
0.77051
0.36812
-0.12533
-0.58779
-0.90483
-0.99803
-0.84433
-0.48175
0.00000
0.48175
0.84433
0.99803
0.90483
0.58779
0.12533
-0.36812
-0.77051
-0.98229
-0.95106
-0.68455
-0.24869
0.24869
0.68455
0.95106
0.98229
0.77051
0.36812
-0.12533
-0.58779
-0.90483
-0.99803
-0.84433
-0.48175
0.00000
0.48175
0.84433
0.99803
0.90483
0.58779
0.12533
-0.36812
-0.77051
-0.98229
-0.95106
-0.68455
-0.24869
0.24869
0.68455
0.95106
0.98229
0.77051
0.36812
-0.12533
-0.58779
-0.90483
-0.99803
-0.84433
-0.48175
0.00000
0.48175
0.84433
0.99803
0.90483
0.58779
0.12533
-0.36812
-0.77051
-0.98229
-0.95106
-0.68455
-0.24869
0.24869
0.68455
0.95106
0.98229
0.77051
0.36812
-0.12533
-0.58779
-0.90483
-0.99803
-0.84433
-0.48175
0.00000
0.48175
0.84433
0.99803
0.90483
0.58779
0.12533
-0.36812
-0.77051
-0.98229
-0.95106
-0.68455
-0.24869
0.24869
0.68455
0.95106
0.98229
0.77051
0.36812
-0.12533
-0.58779
-0.90483
-0.99803
-0.84433
-0.48175
0.00000
0.48175
0.84433
0.99803
0.90483
0.58779
0.12533
-0.36812
-0.77051
-0.98229
-0.95106
-0.68455
-0.24869
0.24869
0.68455
0.95106
0.98229
0.77051
0.36812
-0.12533
-0.58779
-0.90483
-0.99803
-0.84433
-0.48175
0.00000
0.48175
0.84433
0.99803
0.90483
0.58779
0.12533
-0.36812
-0.77051
-0.98229
-0.95106
-0.68455
-0.24869
0.24869
0.68455
0.95106
0.98229
0.77051
0.36812
-0.12533
-0.58779
-0.90483
-0.99803
-0.84433
-0.48175
0.00000
0.48175
0.84433
0.99803
0.90483
0.58779
0.12533
-0.36812
-0.77051
-0.98229
-0.95106
-0.68455
-0.24869
0.24869
0.68455
0.95106
0.98229
0.77051
0.36812
-0.12533
-0.58779
-0.90483
-0.99803
-0.84433
-0.48175
-0.00000
0.48175
0.84433
0.99803
0.90483
0.58779
0.12533
-0.36812
-0.77051
-0.98229
-0.95106
-0.68455
-0.24869
0.24869
0.68455
0.95106
0.98229
0.77051
0.36812
-0.12533
-0.58779
-0.90483
-0.99803
-0.84433
-0.48175
-0.00000
0.48175
0.84433
0.99803
0.90483
0.58779
0.12533
-0.36812
-0.77051
-0.98229
-0.95106
-0.68455
-0.24869
0.24869
0.68455
0.95106
0.98229
0.77051
0.36812
-0.12533
-0.58779
-0.90483
-0.99803
-0.84433
-0.48175
-0.00000
0.48175
0.84433
0.99803
0.90483
0.58779
0.12533
-0.36812
-0.77051
-0.98229
-0.95106
-0.68455
-0.24869
0.24869
0.68455
0.95106
0.98229
0.77051
0.36812
-0.12533
-0.58779
-0.90483
-0.99803
-0.84433
-0.48175
-0.00000
0.48175
0.84433
0.99803
0.90483
0.58779
0.12533
-0.36812
-0.77051
-0.98229
-0.95106
-0.68455
-0.24869
0.24869
0.68455
0.95106
0.98229
0.77051
0.36812
-0.12533
-0.58779
-0.90483
-0.99803
-0.84433
-0.48175
-0.00000
0.48175
0.84433
0.99803
0.90483
0.58779
0.12533
-0.36812
-0.77051
-0.98229
-0.95106
-0.68455
-0.24869
0.24869
0.68455
0.95106
0.98229
0.77051
0.36812
-0.12533
-0.58779
-0.90483
-0.99803
-0.84433
-0.48175
-0.00000
0.48175
0.84433
0.99803
0.90483
0.58779
0.12533
-0.36812
-0.77051
-0.98229
-0.95106
-0.68455
-0.24869
0.24869
0.68455
0.95106
0.98229
0.77051
0.36812
-0.12533
-0.58779
-0.90483
-0.99803
-0.84433
-0.48175
-0.00000
0.48175
0.84433
0.99803
0.90483
0.58779
0.12533
-0.36812
-0.77051
-0.98229
-0.95106
-0.68455
-0.24869
0.24869
0.68455
0.95106
0.98229
0.77051
0.36812
-0.12533
-0.58779
-0.90483
-0.99803
-0.84433
-0.48175
-0.00000
0.48175
0.84433
0.99803
0.90483
0.58779
0.12533
-0.36812
-0.77051
-0.98229
-0.95106
-0.68455
-0.24869
0.24869
0.68455
0.95106
0.98229
0.77051
0.36812
-0.12533
-0.58779
-0.90483
-0.99803
-0.84433
-0.48175
-0.00000
0.48175
0.84433
0.99803
0.90483
0.58779
0.12533
-0.36812
-0.77051
-0.98229
-0.95106
-0.68455
-0.24869
0.24869
0.68455
0.95106
0.98229
0.77051
0.36812
-0.12533
-0.58779
-0.90483
-0.99803
-0.84433
-0.48175
-0.00000
0.48175
0.84433
0.99803
0.90483
0.58779
0.12533
-0.36812
-0.77051
-0.98229
-0.95106
-0.68455
-0.24869
0.24869
0.68455
0.95106
0.98229
0.77051
0.36812
-0.12533
-0.58779
-0.90483
-0.99803
-0.84433
-0.48175
-0.00000
0.48175
0.84433
0.99803
0.90483
0.58779
0.12533
-0.36812
-0.77051
-0.98229
-0.95106
-0.68455
-0.24869
0.24869
0.68455
0.95106
0.98229
0.77051
0.36812
-0.12533
-0.58779
-0.90483
-0.99803
-0.84433
-0.48175
-0.00000
0.48175
0.84433
0.99803
0.90483
0.58779
0.12533
-0.36812
-0.77051
-0.98229
-0.95106
-0.68455
-0.24869
0.24869
0.68455
0.95106
0.98229
0.77051
0.36812
-0.12533
-0.58779
-0.90483
-0.99803
-0.84433
-0.48175
-0.00000
0.48175
0.84433
0.99803
0.90483
0.58779
0.12533
-0.36812
-0.77051
-0.98229
-0.95106
-0.68455
-0.24869
0.24869
0.68455
0.95106
0.98229
0.77051
0.36812
-0.12533
-0.58779
-0.90483
-0.99803
-0.84433
-0.48175
-0.00000
0.48175
0.84433
0.99803
0.90483
0.58779
0.12533
-0.36812
-0.77051
-0.98229
-0.95106
-0.68455
-0.24869
0.24869
0.68455
0.95106
0.98229
0.77051
0.36812
-0.12533
-0.58779
-0.90483
-0.99803
-0.84433
-0.48175
-0.00000
0.48175
0.84433
0.99803
0.90483
0.58779
0.12533
-0.36812
-0.77051
-0.98229
-0.95106
-0.68455
-0.24869
0.24869
0.68455
0.95106
0.98229
0.77051
0.36812
-0.12533
-0.58779
-0.90483
-0.99803
-0.84433
-0.48175
-0.00000
0.48175
0.84433
0.99803
0.90483
0.58779
0.12533
-0.36812
-0.77051
-0.98229
-0.95106
-0.68455
-0.24869
0.24869
0.68455
0.95106
0.98229
0.77051
0.36812
-0.12533
-0.58779
-0.90483
-0.99803
-0.84433
-0.48175
-0.00000
0.48175
0.84433
0.99803
0.90483
0.58779
0.12533
-0.36812
-0.77051
-0.98229
-0.95106
-0.68455
-0.24869
0.24869
0.68455
0.95106
0.98229
0.77051
0.36812
-0.12533
-0.58779
-0.90483
-0.99803
-0.84433
-0.48175
0.00000
0.48175
0.84433
0.99803
0.90483
0.58779
0.12533
-0.36812
-0.77051
-0.98229
-0.95106
-0.68455
-0.24869
0.24869
0.68455
0.95106
0.98229
0.77051
0.36812
-0.12533
-0.58779
-0.90483
-0.99803
-0.84433
-0.48175
-0.00000
0.48175
0.84433
0.99803
0.90483
0.58779
0.12533
-0.36812
-0.77051
-0.98229
-0.95106
-0.68455
-0.24869
0.24869
0.68455
0.95106
0.98229
0.77051
0.36812
-0.12533
-0.58779
-0.90483
-0.99803
-0.84433
-0.48175
-0.00000
0.48175
0.84433
0.99803
0.90483
0.58779
0.12533
-0.36812
-0.77051
-0.98229
-0.95106
-0.68455
-0.24869
0.24869
0.68455
0.95106
0.98229
0.77051
0.36812
-0.12533
-0.58779
-0.90483
-0.99803
-0.84433
-0.48175
-0.00000
0.48175
0.84433
0.99803
0.90483
0.58779
0.12533
-0.36812
-0.77051
-0.98229
-0.95106
-0.68455
-0.24869
0.24869
0.68455
0.95106
0.98229
0.77051
0.36812
-0.12533
-0.58779
-0.90483
-0.99803
-0.84433
-0.48175
-0.00000
0.48175
0.84433
0.99803
0.90483
0.58779
0.12533
-0.36812
-0.77051
-0.98229
-0.95106
-0.68455
-0.24869
0.24869
0.68455
0.95106
0.98229
0.77051
0.36812
-0.12533
-0.58779
-0.90483
-0.99803
-0.84433
-0.48175
0.00000
0.48175
0.84433
0.99803
0.90483
0.58779
0.12533
-0.36812
-0.77051
-0.98229
-0.95106
-0.68455
-0.24869
0.24869
0.68455
0.95106
0.98229
0.77051
0.36812
-0.12533
-0.58779
-0.90483
-0.99803
-0.84433
-0.48175
-0.00000
0.48175
0.84433
0.99803
0.90483
0.58779
0.12533
-0.36812
-0.77051
-0.98229
-0.95106
-0.68455
-0.24869
0.24869
0.68455
0.95106
0.98229
0.77051
0.36812
-0.12533
-0.58779
-0.90483
-0.99803
-0.84433
-0.48175
-0.00000
0.48175
0.84433
0.99803
0.90483
0.58779
0.12533
-0.36812
-0.77051
-0.98229
-0.95106
-0.68455
-0.24869
0.24869
0.68455
0.95106
0.98229
0.77051
0.36812
-0.12533
-0.58779
-0.90483
-0.99803
-0.84433
-0.48175
-0.00000
0.48175
0.84433
0.99803
0.90483
0.58779
0.12533
-0.36812
-0.77051
-0.98229
-0.95106
-0.68455
-0.24869
0.24869
0.68455
0.95106
0.98229
0.77051
0.36812
-0.12533
-0.58779
-0.90483
-0.99803
-0.84433
-0.48175
-0.00000
0.48175
0.84433
0.99803
0.90483
0.58779
0.12533
-0.36812
-0.77051
-0.98229
-0.95106
-0.68455
-0.24869
0.24869
0.68455
0.95106
0.98229
0.77051
0.36812
-0.12533
-0.58779
-0.90483
-0.99803
-0.84433
-0.48175
0.00000
0.48175
0.84433
0.99803
0.90483
0.58779
0.12533
-0.36812
-0.77051
-0.98229
-0.95106
-0.68455
-0.24869
0.24869
0.68455
0.95106
0.98229
0.77051
0.36812
-0.12533
-0.58779
-0.90483
-0.99803
-0.84433
-0.48175
-0.00000
0.48175
0.84433
0.99803
0.90483
0.58779
0.12533
-0.36812
-0.77051
-0.98229
-0.95106
-0.68455
-0.24869
0.24869
0.68455
0.95106
0.98229
0.77051
0.36812
-0.12533
-0.58779
-0.90483
-0.99803
-0.84433
-0.48175
-0.00000
0.48175
0.84433
0.99803
0.90483
0.58779
0.12533
-0.36812
-0.77051
-0.98229
-0.95106
-0.68455
-0.24869
0.24869
0.68455
0.95106
0.98229
0.77051
0.36812
-0.12533
-0.58779
-0.90483
-0.99803
-0.84433
-0.48175
-0.00000
0.48175
0.84433
0.99803
0.90483
0.58779
0.12533
-0.36812
-0.77051
-0.98229
-0.95106
-0.68455
-0.24869
0.24869
0.68455
0.95106
0.98229
0.77051
0.36812
-0.12533
-0.58779
-0.90483
-0.99803
-0.84433
-0.48175
-0.00000
0.48175
0.84433
0.99803
0.90483
0.58779
0.12533
-0.36812
-0.77051
-0.98229
-0.95106
-0.68455
-0.24869
0.24869
0.68455
0.95106
0.98229
0.77051
0.36812
-0.12533
-0.58779
-0.90483
-0.99803
-0.84433
-0.48175
0.00000
0.48175
0.84433
0.99803
0.90483
0.58779
0.12533
-0.36812
-0.77051
-0.98229
-0.95106
-0.68455
-0.24869
0.24869
0.68455
0.95106
0.98229
0.77051
0.36812
-0.12533
-0.58779
-0.90483
-0.99803
-0.84433
-0.48175
-0.00000
0.48175
0.84433
0.99803
0.90483
0.58779
0.12533
-0.36812
-0.77051
-0.98229
-0.95106
-0.68455
-0.24869
0.24869
0.68455
0.95106
0.98229
0.77051
0.36812
-0.12533
-0.58779
-0.90483
-0.99803
-0.84433
-0.48175
-0.00000
0.48175
0.84433
0.99803
0.90483
0.58779
0.12533
-0.36812
-0.77051
-0.98229
-0.95106
-0.68455
-0.24869
0.24869
0.68455
0.95106
0.98229
0.77051
0.36812
-0.12533
-0.58779
-0.90483
-0.99803
-0.84433
-0.48175
-0.00000
0.48175
0.84433
0.99803
0.90483
0.58779
0.12533
-0.36812
-0.77051
-0.98229
-0.95106
-0.68455
-0.24869
0.24869
0.68455
0.95106
0.98229
0.77051
0.36812
-0.12533
-0.58779
-0.90483
-0.99803
-0.84433
-0.48175
-0.00000
0.48175
0.84433
0.99803
0.90483
0.58779
0.12533
-0.36812
-0.77051
-0.98229
-0.95106
-0.68455
-0.24869
0.24869
0.68455
0.95106
0.98229
0.77051
0.36812
-0.12533
-0.58779
-0.90483
-0.99803
-0.84433
-0.48175
0.00000
0.48175
0.84433
0.99803
0.90483
0.58779
0.12533
-0.36812
-0.77051
-0.98229
-0.95106
-0.68455
-0.24869
0.24869
0.68455
0.95106
0.98229
0.77051
0.36812
-0.12533
-0.58779
-0.90483
-0.99803
-0.84433
-0.48175
0.00000
0.48175
0.84433
0.99803
0.90483
0.58779
0.12533
-0.36812
-0.77051
-0.98229
-0.95106
-0.68455
-0.24869
0.24869
0.68455
0.95106
0.98229
0.77051
0.36812
-0.12533
-0.58779
-0.90483
-0.99803
-0.84433
-0.48175
-0.00000
0.48175
0.84433
0.99803
0.90483
0.58779
0.12533
-0.36812
-0.77051
-0.98229
-0.95106
-0.68455
-0.24869
0.24869
0.68455
0.95106
0.98229
0.77051
0.36812
-0.12533
-0.58779
-0.90483
-0.99803
-0.84433
-0.48175
-0.00000
0.48175
0.84433
0.99803
0.90483
0.58779
0.12533
-0.36812
-0.77051
-0.98229
-0.95106
-0.68455
-0.24869
0.24869
0.68455
0.95106
0.98229
0.77051
0.36812
-0.12533
-0.58779
-0.90483
-0.99803
-0.84433
-0.48175
0.00000
0.48175
0.84433
0.99803
0.90483
0.58779
0.12533
-0.36812
-0.77051
-0.98229
-0.95106
-0.68455
-0.24869
0.24869
0.68455
0.95106
0.98229
0.77051
0.36812
-0.12533
-0.58779
-0.90483
-0.99803
-0.84433
-0.48175
-0.00000
0.48175
0.84433
0.99803
0.90483
0.58779
0.12533
-0.36812
-0.77051
-0.98229
-0.95106
-0.68455
-0.24869
0.24869
0.68455
0.95106
0.98229
0.77051
0.36812
-0.12533
-0.58779
-0.90483
-0.99803
-0.84433
-0.48175
-0.00000
0.48175
0.84433
0.99803
0.90483
0.58779
0.12533
-0.36812
-0.77051
-0.98229
-0.95106
-0.68455
-0.24869
0.24869
0.68455
0.95106
0.98229
0.77051
0.36812
-0.12533
-0.58779
-0.90483
-0.99803
-0.84433
-0.48175
-0.00000
0.48175
0.84433
0.99803
0.90483
0.58779
0.12533
-0.36812
-0.77051
-0.98229
-0.95106
-0.68455
-0.24869
0.24869
0.68455
0.95106
0.98229
0.77051
0.36812
-0.12533
-0.58779
-0.90483
-0.99803
-0.84433
-0.48175
-0.00000
0.48175
0.84433
0.99803
0.90483
0.58779
0.12533
-0.36812
-0.77051
-0.98229
-0.95106
-0.68455
-0.24869
0.24869
0.68455
0.95106
0.98229
0.77051
0.36812
-0.12533
-0.58779
-0.90483
-0.99803
-0.84433
-0.48175
0.00000
0.48175
0.84433
0.99803
0.90483
0.58779
0.12533
-0.36812
-0.77051
-0.98229
-0.95106
-0.68455
-0.24869
0.24869
0.68455
0.95106
0.98229
0.77051
0.36812
-0.12533
-0.58779
-0.90483
-0.99803
-0.84433
-0.48175
-0.00000
0.48175
0.84433
0.99803
0.90483
0.58779
0.12533
-0.36812
-0.77051
-0.98229
-0.95106
-0.68455
-0.24869
0.24869
0.68455
0.95106
0.98229
0.77051
0.36812
-0.12533
-0.58779
-0.90483
-0.99803
-0.84433
-0.48175
0.00000
0.48175
0.84433
0.99803
0.90483
0.58779
0.12533
-0.36812
-0.77051
-0.98229
-0.95106
-0.68455
-0.24869
0.24869
0.68455
0.95106
0.98229
0.77051
0.36812
-0.12533
-0.58779
-0.90483
-0.99803
-0.84433
-0.48175
-0.00000
0.48175
0.84433
0.99803
0.90483
0.58779
0.12533
-0.36812
-0.77051
-0.98229
-0.95106
-0.68455
-0.24869
0.24869
0.68455
0.95106
0.98229
0.77051
0.36812
-0.12533
-0.58779
-0.90483
-0.99803
-0.84433
-0.48175
-0.00000
0.48175
0.84433
0.99803
0.90483
0.58779
0.12533
-0.36812
-0.77051
-0.98229
-0.95106
-0.68455
-0.24869
0.24869
0.68455
0.95106
0.98229
0.77051
0.36812
-0.12533
-0.58779
-0.90483
-0.99803
-0.84433
-0.48175
-0.00000
0.48175
0.84433
0.99803
0.90483
0.58779
0.12533
-0.36812
-0.77051
-0.98229
-0.95106
-0.68455
-0.24869
0.24869
0.68455
0.95106
0.98229
0.77051
0.36812
-0.12533
-0.58779
-0.90483
-0.99803
-0.84433
-0.48175
-0.00000
0.48175
0.84433
0.99803
0.90483
0.58779
0.12533
-0.36812
-0.77051
-0.98229
-0.95106
-0.68455
-0.24869
0.24869
0.68455
0.95106
0.98229
0.77051
0.36812
-0.12533
-0.58779
-0.90483
-0.99803
-0.84433
-0.48175
-0.00000
0.48175
0.84433
0.99803
0.90483
0.58779
0.12533
-0.36812
-0.77051
-0.98229
-0.95106
-0.68455
-0.24869
0.24869
0.68455
0.95106
0.98229
0.77051
0.36812
-0.12533
-0.58779
-0.90483
-0.99803
-0.84433
-0.48175
0.00000
0.48175
0.84433
0.99803
0.90483
0.58779
0.12533
-0.36812
-0.77051
-0.98229
-0.95106
-0.68455
-0.24869
0.24869
0.68455
0.95106
0.98229
0.77051
0.36812
-0.12533
-0.58779
-0.90483
-0.99803
-0.84433
-0.48175
-0.00000
0.48175
0.84433
0.99803
0.90483
0.58779
0.12533
-0.36812
-0.77051
-0.98229
-0.95106
-0.68455
-0.24869
0.24869
0.68455
0.95106
0.98229
0.77051
0.36812
-0.12533
-0.58779
-0.90483
-0.99803
-0.84433
-0.48175
0.00000
0.48175
0.84433
0.99803
0.90483
0.58779
0.12533
-0.36812
-0.77051
-0.98229
-0.95106
-0.68455
-0.24869
0.24869
0.68455
0.95106
0.98229
0.77051
0.36812
-0.12533
-0.58779
-0.90483
-0.99803
-0.84433
-0.48175
-0.00000
0.48175
0.84433
0.99803
0.90483
0.58779
0.12533
-0.36812
-0.77051
-0.98229
-0.95106
-0.68455
-0.24869
0.24869
0.68455
0.95106
0.98229
0.77051
0.36812
-0.12533
-0.58779
-0.90483
-0.99803
-0.84433
-0.48175
0.00000
0.48175
0.84433
0.99803
0.90483
0.58779
0.12533
-0.36812
-0.77051
-0.98229
-0.95106
-0.68455
-0.24869
0.24869
0.68455
0.95106
0.98229
0.77051
0.36812
-0.12533
-0.58779
-0.90483
-0.99803
-0.84433
-0.48175
0.00000
0.48175
0.84433
0.99803
0.90483
0.58779
0.12533
-0.36812
-0.77051
-0.98229
-0.95106
-0.68455
-0.24869
0.24869
0.68455
0.95106
0.98229
0.77051
0.36812
-0.12533
-0.58779
-0.90483
-0.99803
-0.84433
-0.48175
-0.00000
0.48175
0.84433
0.99803
0.90483
0.58779
0.12533
-0.36812
-0.77051
-0.98229
-0.95106
-0.68455
-0.24869
0.24869
0.68455
0.95106
0.98229
0.77051
0.36812
-0.12533
-0.58779
-0.90483
-0.99803
-0.84433
-0.48175
-0.00000
0.48175
0.84433
0.99803
0.90483
0.58779
0.12533
-0.36812
-0.77051
-0.98229
-0.95106
-0.68455
-0.24869
0.24869
0.68455
0.95106
0.98229
0.77051
0.36812
-0.12533
-0.58779
-0.90483
-0.99803
-0.84433
-0.48175
-0.00000
0.48175
0.84433
0.99803
0.90483
0.58779
0.12533
-0.36812
-0.77051
-0.98229
-0.95106
-0.68455
-0.24869
0.24869
0.68455
0.95106
0.98229
0.77051
0.36812
-0.12533
-0.58779
-0.90483
-0.99803
-0.84433
-0.48175
-0.00000
0.48175
0.84433
0.99803
0.90483
0.58779
0.12533
-0.36812
-0.77051
-0.98229
-0.95106
-0.68455
-0.24869
0.24869
0.68455
0.95106
0.98229
0.77051
0.36812
-0.12533
-0.58779
-0.90483
-0.99803
-0.84433
-0.48175
0.00000
0.48175
0.84433
0.99803
0.90483
0.58779
0.12533
-0.36812
-0.77051
-0.98229
-0.95106
-0.68455
-0.24869
0.24869
0.68455
0.95106
0.98229
0.77051
0.36812
-0.12533
-0.58779
-0.90483
-0.99803
-0.84433
-0.48175
-0.00000
0.48175
0.84433
0.99803
0.90483
0.58779
0.12533
-0.36812
-0.77051
-0.98229
-0.95106
-0.68455
-0.24869
0.24869
0.68455
0.95106
0.98229
0.77051
0.36812
-0.12533
-0.58779
-0.90483
-0.99803
-0.84433
-0.48175
0.00000
0.48175
0.84433
0.99803
0.90483
0.58779
0.12533
-0.36812
-0.77051
-0.98229
-0.95106
-0.68455
-0.24869
0.24869
0.68455
0.95106
0.98229
0.77051
0.36812
-0.12533
-0.58779
-0.90483
-0.99803
-0.84433
-0.48175
-0.00000
0.48175
0.84433
0.99803
0.90483
0.58779
0.12533
-0.36812
-0.77051
-0.98229
-0.95106
-0.68455
-0.24869
0.24869
0.68455
0.95106
0.98229
0.77051
0.36812
-0.12533
-0.58779
-0.90483
-0.99803
-0.84433
-0.48175
0.00000
0.48175
0.84433
0.99803
0.90483
0.58779
0.12533
-0.36812
-0.77051
-0.98229
-0.95106
-0.68455
-0.24869
0.24869
0.68455
0.95106
0.98229
0.77051
0.36812
-0.12533
-0.58779
-0.90483
-0.99803
-0.84433
-0.48175
0.00000
0.48175
0.84433
0.99803
0.90483
0.58779
0.12533
-0.36812
-0.77051
-0.98229
-0.95106
-0.68455
-0.24869
0.24869
0.68455
0.95106
0.98229
0.77051
0.36812
-0.12533
-0.58779
-0.90483
-0.99803
-0.84433
-0.48175
-0.00000
0.48175
0.84433
0.99803
0.90483
0.58779
0.12533
-0.36812
-0.77051
-0.98229
-0.95106
-0.68455
-0.24869
0.24869
0.68455
0.95106
0.98229
0.77051
0.36812
-0.12533
-0.58779
-0.90483
-0.99803
-0.84433
-0.48175
-0.00000
0.48175
0.84433
0.99803
0.90483
0.58779
0.12533
-0.36812
-0.77051
-0.98229
-0.95106
-0.68455
-0.24869
0.24869
0.68455
0.95106
0.98229
0.77051
0.36812
-0.12533
-0.58779
-0.90483
-0.99803
-0.84433
-0.48175
-0.00000
0.48175
0.84433
0.99803
0.90483
0.58779
0.12533
-0.36812
-0.77051
-0.98229
-0.95106
-0.68455
-0.24869
0.24869
0.68455
0.95106
0.98229
0.77051
0.36812
-0.12533
-0.58779
-0.90483
-0.99803
-0.84433
-0.48175
-0.00000
0.48175
0.84433
0.99803
0.90483
0.58779
0.12533
-0.36812
-0.77051
-0.98229
-0.95106
-0.68455
-0.24869
0.24869
0.68455
0.95106
0.98229
0.77051
0.36812
-0.12533
-0.58779
-0.90483
-0.99803
-0.84433
-0.48175
0.00000
0.48175
0.84433
0.99803
0.90483
0.58779
0.12533
-0.36812
-0.77051
-0.98229
-0.95106
-0.68455
-0.24869
0.24869
0.68455
0.95106
0.98229
0.77051
0.36812
-0.12533
-0.58779
-0.90483
-0.99803
-0.84433
-0.48175
-0.00000
0.48175
0.84433
0.99803
0.90483
0.58779
0.12533
-0.36812
-0.77051
-0.98229
-0.95106
-0.68455
-0.24869
0.24869
0.68455
0.95106
0.98229
0.77051
0.36812
-0.12533
-0.58779
-0.90483
-0.99803
-0.84433
-0.48175
0.00000
0.48175
0.84433
0.99803
0.90483
0.58779
0.12533
-0.36812
-0.77051
-0.98229
-0.95106
-0.68455
-0.24869
0.24869
0.68455
0.95106
0.98229
0.77051
0.36812
-0.12533
-0.58779
-0.90483
-0.99803
-0.84433
-0.48175
-0.00000
0.48175
0.84433
0.99803
0.90483
0.58779
0.12533
-0.36812
-0.77051
-0.98229
-0.95106
-0.68455
-0.24869
0.24869
0.68455
0.95106
0.98229
0.77051
0.36812
-0.12533
-0.58779
-0.90483
-0.99803
-0.84433
-0.48175
0.00000
0.48175
0.84433
0.99803
0.90483
0.58779
0.12533
-0.36812
-0.77051
-0.98229
-0.95106
-0.68455
-0.24869
0.24869
0.68455
0.95106
0.98229
0.77051
0.36812
-0.12533
-0.58779
-0.90483
-0.99803
-0.84433
-0.48175
0.00000
0.48175
0.84433
0.99803
0.90483
0.58779
0.12533
-0.36812
-0.77051
-0.98229
-0.95106
-0.68455
-0.24869
0.24869
0.68455
0.95106
0.98229
0.77051
0.36812
-0.12533
-0.58779
-0.90483
-0.99803
-0.84433
-0.48175
0.00000
0.48175
0.84433
0.99803
0.90483
0.58779
0.12533
-0.36812
-0.77051
-0.98229
-0.95106
-0.68455
-0.24869
0.24869
0.68455
0.95106
0.98229
0.77051
0.36812
-0.12533
-0.58779
-0.90483
-0.99803
-0.84433
-0.48175
-0.00000
0.48175
0.84433
0.99803
0.90483
0.58779
0.12533
-0.36812
-0.77051
-0.98229
-0.95106
-0.68455
-0.24869
0.24869
0.68455
0.95106
0.98229
0.77051
0.36812
-0.12533
-0.58779
-0.90483
-0.99803
-0.84433
-0.48175
-0.00000
0.48175
0.84433
0.99803
0.90483
0.58779
0.12533
-0.36812
-0.77051
-0.98229
-0.95106
-0.68455
-0.24869
0.24869
0.68455
0.95106
0.98229
0.77051
0.36812
-0.12533
-0.58779
-0.90483
-0.99803
-0.84433
-0.48175
-0.00000
0.48175
0.84433
0.99803
0.90483
0.58779
0.12533
-0.36812
-0.77051
-0.98229
-0.95106
-0.68455
-0.24869
0.24869
0.68455
0.95106
0.98229
0.77051
0.36812
-0.12533
-0.58779
-0.90483
-0.99803
-0.84433
-0.48175
0.00000
0.48175
0.84433
0.99803
0.90483
0.58779
0.12533
-0.36812
-0.77051
-0.98229
-0.95106
-0.68455
-0.24869
0.24869
0.68455
0.95106
0.98229
0.77051
0.36812
-0.12533
-0.58779
-0.90483
-0.99803
-0.84433
-0.48175
-0.00000
0.48175
0.84433
0.99803
0.90483
0.58779
0.12533
-0.36812
-0.77051
-0.98229
-0.95106
-0.68455
-0.24869
0.24869
0.68455
0.95106
0.98229
0.77051
0.36812
-0.12533
-0.58779
-0.90483
-0.99803
-0.84433
-0.48175
0.00000
0.48175
0.84433
0.99803
0.90483
0.58779
0.12533
-0.36812
-0.77051
-0.98229
-0.95106
-0.68455
-0.24869
0.24869
0.68455
0.95106
0.98229
0.77051
0.36812
-0.12533
-0.58779
-0.90483
-0.99803
-0.84433
-0.48175
-0.00000
0.48175
0.84433
0.99803
0.90483
0.58779
0.12533
-0.36812
-0.77051
-0.98229
-0.95106
-0.68455
-0.24869
0.24869
0.68455
0.95106
0.98229
0.77051
0.36812
-0.12533
-0.58779
-0.90483
-0.99803
-0.84433
-0.48175
0.00000
0.48175
0.84433
0.99803
0.90483
0.58779
0.12533
-0.36812
-0.77051
-0.98229
-0.95106
-0.68455
-0.24869
0.24869
0.68455
0.95106
0.98229
0.77051
0.36812
-0.12533
-0.58779
-0.90483
-0.99803
-0.84433
-0.48175
0.00000
0.48175
0.84433
0.99803
0.90483
0.58779
0.12533
-0.36812
-0.77051
-0.98229
-0.95106
-0.68455
-0.24869
0.24869
0.68455
0.95106
0.98229
0.77051
0.36812
-0.12533
-0.58779
-0.90483
-0.99803
-0.84433
-0.48175
0.00000
0.48175
0.84433
0.99803
0.90483
0.58779
0.12533
-0.36812
-0.77051
-0.98229
-0.95106
-0.68455
-0.24869
0.24869
0.68455
0.95106
0.98229
0.77051
0.36812
-0.12533
-0.58779
-0.90483
-0.99803
-0.84433
-0.48175
-0.00000
0.48175
0.84433
0.99803
0.90483
0.58779
0.12533
-0.36812
-0.77051
-0.98229
-0.95106
-0.68455
-0.24869
0.24869
0.68455
0.95106
0.98229
0.77051
0.36812
-0.12533
-0.58779
-0.90483
-0.99803
-0.84433
-0.48175
-0.00000
0.48175
0.84433
0.99803
0.90483
0.58779
0.12533
-0.36812
-0.77051
-0.98229
-0.95106
-0.68455
-0.24869
0.24869
0.68455
0.95106
0.98229
0.77051
0.36812
-0.12533
-0.58779
-0.90483
-0.99803
-0.84433
-0.48175
-0.00000
0.48175
0.84433
0.99803
0.90483
0.58779
0.12533
-0.36812
-0.77051
-0.98229
-0.95106
-0.68455
-0.24869
0.24869
0.68455
0.95106
0.98229
0.77051
0.36812
-0.12533
-0.58779
-0.90483
-0.99803
-0.84433
-0.48175
0.00000
0.48175
0.84433
0.99803
0.90483
0.58779
0.12533
-0.36812
-0.77051
-0.98229
-0.95106
-0.68455
-0.24869
0.24869
0.68455
0.95106
0.98229
0.77051
0.36812
-0.12533
-0.58779
-0.90483
-0.99803
-0.84433
-0.48175
-0.00000
0.48175
0.84433
0.99803
0.90483
0.58779
0.12533
-0.36812
-0.77051
-0.98229
-0.95106
-0.68455
-0.24869
0.24869
0.68455
0.95106
0.98229
0.77051
0.36812
-0.12533
-0.58779
-0.90483
-0.99803
-0.84433
-0.48175
0.00000
0.48175
0.84433
0.99803
0.90483
0.58779
0.12533
-0.36812
-0.77051
-0.98229
-0.95106
-0.68455
-0.24869
0.24869
0.68455
0.95106
0.98229
0.77051
0.36812
-0.12533
-0.58779
-0.90483
-0.99803
-0.84433
-0.48175
-0.00000
0.48175
0.84433
0.99803
0.90483
0.58779
0.12533
-0.36812
-0.77051
-0.98229
-0.95106
-0.68455
-0.24869
0.24869
0.68455
0.95106
0.98229
0.77051
0.36812
-0.12533
-0.58779
-0.90483
-0.99803
-0.84433
-0.48175
0.00000
0.48175
0.84433
0.99803
0.90483
0.58779
0.12533
-0.36812
-0.77051
-0.98229
-0.95106
-0.68455
-0.24869
0.24869
0.68455
0.95106
0.98229
0.77051
0.36812
-0.12533
-0.58779
-0.90483
-0.99803
-0.84433
-0.48175
0.00000
0.48175
0.84433
0.99803
0.90483
0.58779
0.12533
-0.36812
-0.77051
-0.98229
-0.95106
-0.68455
-0.24869
0.24869
0.68455
0.95106
0.98229
0.77051
0.36812
-0.12533
-0.58779
-0.90483
-0.99803
-0.84433
-0.48175
0.00000
0.48175
0.84433
0.99803
0.90483
0.58779
0.12533
-0.36812
-0.77051
-0.98229
-0.95106
-0.68455
-0.24869
0.24869
0.68455
0.95106
0.98229
0.77051
0.36812
-0.12533
-0.58779
-0.90483
-0.99803
-0.84433
-0.48175
0.00000
0.48175
0.84433
0.99803
0.90483
0.58779
0.12533
-0.36812
-0.77051
-0.98229
-0.95106
-0.68455
-0.24869
0.24869
0.68455
0.95106
0.98229
0.77051
0.36812
-0.12533
-0.58779
-0.90483
-0.99803
-0.84433
-0.48175
-0.00000
0.48175
0.84433
0.99803
0.90483
0.58779
0.12533
-0.36812
-0.77051
-0.98229
-0.95106
-0.68455
-0.24869
0.24869
0.68455
0.95106
0.98229
0.77051
0.36812
-0.12533
-0.58779
-0.90483
-0.99803
-0.84433
-0.48175
-0.00000
0.48175
0.84433
0.99803
0.90483
0.58779
0.12533
-0.36812
-0.77051
-0.98229
-0.95106
-0.68455
-0.24869
0.24869
0.68455
0.95106
0.98229
0.77051
0.36812
-0.12533
-0.58779
-0.90483
-0.99803
-0.84433
-0.48175
0.00000
0.48175
0.84433
0.99803
0.90483
0.58779
0.12533
-0.36812
-0.77051
-0.98229
-0.95106
-0.68455
-0.24869
0.24869
0.68455
0.95106
0.98229
0.77051
0.36812
-0.12533
-0.58779
-0.90483
-0.99803
-0.84433
-0.48175
-0.00000
0.48175
0.84433
0.99803
0.90483
0.58779
0.12533
-0.36812
-0.77051
-0.98229
-0.95106
-0.68455
-0.24869
0.24869
0.68455
0.95106
0.98229
0.77051
0.36812
-0.12533
-0.58779
-0.90483
-0.99803
-0.84433
-0.48175
0.00000
0.48175
0.84433
0.99803
0.90483
0.58779
0.12533
-0.36812
-0.77051
-0.98229
-0.95106
-0.68455
-0.24869
0.24869
0.68455
0.95106
0.98229
0.77051
0.36812
-0.12533
-0.58779
-0.90483
-0.99803
-0.84433
-0.48175
-0.00000
0.48175
0.84433
0.99803
0.90483
0.58779
0.12533
-0.36812
-0.77051
-0.98229
-0.95106
-0.68455
-0.24869
0.24869
0.68455
0.95106
0.98229
0.77051
0.36812
-0.12533
-0.58779
-0.90483
-0.99803
-0.84433
-0.48175
0.00000
0.48175
0.84433
0.99803
0.90483
0.58779
0.12533
-0.36812
-0.77051
-0.98229
-0.95106
-0.68455
-0.24869
0.24869
0.68455
0.95106
0.98229
0.77051
0.36812
-0.12533
-0.58779
-0.90483
-0.99803
-0.84433
-0.48175
0.00000
0.48175
0.84433
0.99803
0.90483
0.58779
0.12533
-0.36812
-0.77051
-0.98229
-0.95106
-0.68455
-0.24869
0.24869
0.68455
0.95106
0.98229
0.77051
0.36812
-0.12533
-0.58779
-0.90483
-0.99803
-0.84433
-0.48175
0.00000
0.48175
0.84433
0.99803
0.90483
0.58779
0.12533
-0.36812
-0.77051
-0.98229
-0.95106
-0.68455
-0.24869
0.24869
0.68455
0.95106
0.98229
0.77051
0.36812
-0.12533
-0.58779
-0.90483
-0.99803
-0.84433
-0.48175
0.00000
0.48175
0.84433
0.99803
0.90483
0.58779
0.12533
-0.36812
-0.77051
-0.98229
-0.95106
-0.68455
-0.24869
0.24869
0.68455
0.95106
0.98229
0.77051
0.36812
-0.12533
-0.58779
-0.90483
-0.99803
-0.84433
-0.48175
0.00000
0.48175
0.84433
0.99803
0.90483
0.58779
0.12533
-0.36812
-0.77051
-0.98229
-0.95106
-0.68455
-0.24869
0.24869
0.68455
0.95106
0.98229
0.77051
0.36812
-0.12533
-0.58779
-0.90483
-0.99803
-0.84433
-0.48175
-0.00000
0.48175
0.84433
0.99803
0.90483
0.58779
0.12533
-0.36812
-0.77051
-0.98229
-0.95106
-0.68455
-0.24869
0.24869
0.68455
0.95106
0.98229
0.77051
0.36812
-0.12533
-0.58779
-0.90483
-0.99803
-0.84433
-0.48175
0.00000
0.48175
0.84433
0.99803
0.90483
0.58779
0.12533
-0.36812
-0.77051
-0.98229
-0.95106
-0.68455
-0.24869
0.24869
0.68455
0.95106
0.98229
0.77051
0.36812
-0.12533
-0.58779
-0.90483
-0.99803
-0.84433
-0.48175
-0.00000
0.48175
0.84433
0.99803
0.90483
0.58779
0.12533
-0.36812
-0.77051
-0.98229
-0.95106
-0.68455
-0.24869
0.24869
0.68455
0.95106
0.98229
0.77051
0.36812
-0.12533
-0.58779
-0.90483
-0.99803
-0.84433
-0.48175
0.00000
0.48175
0.84433
0.99803
0.90483
0.58779
0.12533
-0.36812
-0.77051
-0.98229
-0.95106
-0.68455
-0.24869
0.24869
0.68455
0.95106
0.98229
0.77051
0.36812
-0.12533
-0.58779
-0.90483
-0.99803
-0.84433
-0.48175
-0.00000
0.48175
0.84433
0.99803
0.90483
0.58779
0.12533
-0.36812
-0.77051
-0.98229
-0.95106
-0.68455
-0.24869
0.24869
0.68455
0.95106
0.98229
0.77051
0.36812
-0.12533
-0.58779
-0.90483
-0.99803
-0.84433
-0.48175
0.00000
0.48175
0.84433
0.99803
0.90483
0.58779
0.12533
-0.36812
-0.77051
-0.98229
-0.95106
-0.68455
-0.24869
0.24869
0.68455
0.95106
0.98229
0.77051
0.36812
-0.12533
-0.58779
-0.90483
-0.99803
-0.84433
-0.48175
0.00000
0.48175
0.84433
0.99803
0.90483
0.58779
0.12533
-0.36812
-0.77051
-0.98229
-0.95106
-0.68455
-0.24869
0.24869
0.68455
0.95106
0.98229
0.77051
0.36812
-0.12533
-0.58779
-0.90483
-0.99803
-0.84433
-0.48175
-0.00000
0.48175
0.84433
0.99803
0.90483
0.58779
0.12533
-0.36812
-0.77051
-0.98229
-0.95106
-0.68455
-0.24869
0.24869
0.68455
0.95106
0.98229
0.77051
0.36812
-0.12533
-0.58779
-0.90483
-0.99803
-0.84433
-0.48175
0.00000
0.48175
0.84433
0.99803
0.90483
0.58779
0.12533
-0.36812
-0.77051
-0.98229
-0.95106
-0.68455
-0.24869
0.24869
0.68455
0.95106
0.98229
0.77051
0.36812
-0.12533
-0.58779
-0.90483
-0.99803
-0.84433
-0.48175
-0.00000
0.48175
0.84433
0.99803
0.90483
0.58779
0.12533
-0.36812
-0.77051
-0.98229
-0.95106
-0.68455
-0.24869
0.24869
0.68455
0.95106
0.98229
0.77051
0.36812
-0.12533
-0.58779
-0.90483
-0.99803
-0.84433
-0.48175
-0.00000
0.48175
0.84433
0.99803
0.90483
0.58779
0.12533
-0.36812
-0.77051
-0.98229
-0.95106
-0.68455
-0.24869
0.24869
0.68455
0.95106
0.98229
0.77051
0.36812
-0.12533
-0.58779
-0.90483
-0.99803
-0.84433
-0.48175
-0.00000
0.48175
0.84433
0.99803
0.90483
0.58779
0.12533
-0.36812
-0.77051
-0.98229
-0.95106
-0.68455
-0.24869
0.24869
0.68455
0.95106
0.98229
0.77051
0.36812
-0.12533
-0.58779
-0.90483
-0.99803
-0.84433
-0.48175
-0.00000
0.48175
0.84433
0.99803
0.90483
0.58779
0.12533
-0.36812
-0.77051
-0.98229
-0.95106
-0.68455
-0.24869
0.24869
0.68455
0.95106
0.98229
0.77051
0.36812
-0.12533
-0.58779
-0.90483
-0.99803
-0.84433
-0.48175
-0.00000
0.48175
0.84433
0.99803
0.90483
0.58779
0.12533
-0.36812
-0.77051
-0.98229
-0.95106
-0.68455
-0.24869
0.24869
0.68455
0.95106
0.98229
0.77051
0.36812
-0.12533
-0.58779
-0.90483
-0.99803
-0.84433
-0.48175
-0.00000
0.48175
0.84433
0.99803
0.90483
0.58779
0.12533
-0.36812
-0.77051
-0.98229
-0.95106
-0.68455
-0.24869
0.24869
0.68455
0.95106
0.98229
0.77051
0.36812
-0.12533
-0.58779
-0.90483
-0.99803
-0.84433
-0.48175
-0.00000
0.48175
0.84433
0.99803
0.90483
0.58779
0.12533
-0.36812
-0.77051
-0.98229
-0.95106
-0.68455
-0.24869
0.24869
0.68455
0.95106
0.98229
0.77051
0.36812
-0.12533
-0.58779
-0.90483
-0.99803
-0.84433
-0.48175
0.00000
0.48175
0.84433
0.99803
0.90483
0.58779
0.12533
-0.36812
-0.77051
-0.98229
-0.95106
-0.68455
-0.24869
0.24869
0.68455
0.95106
0.98229
0.77051
0.36812
-0.12533
-0.58779
-0.90483
-0.99803
-0.84433
-0.48175
-0.00000
0.48175
0.84433
0.99803
0.90483
0.58779
0.12533
-0.36812
-0.77051
-0.98229
-0.95106
-0.68455
-0.24869
0.24869
0.68455
0.95106
0.98229
0.77051
0.36812
-0.12533
-0.58779
-0.90483
-0.99803
-0.84433
-0.48175
0.00000
0.48175
0.84433
0.99803
0.90483
0.58779
0.12533
-0.36812
-0.77051
-0.98229
-0.95106
-0.68455
-0.24869
0.24869
0.68455
0.95106
0.98229
0.77051
0.36812
-0.12533
-0.58779
-0.90483
-0.99803
-0.84433
-0.48175
-0.00000
0.48175
0.84433
0.99803
0.90483
0.58779
0.12533
-0.36812
-0.77051
-0.98229
-0.95106
-0.68455
-0.24869
0.24869
0.68455
0.95106
0.98229
0.77051
0.36812
-0.12533
-0.58779
-0.90483
-0.99803
-0.84433
-0.48175
0.00000
0.48175
0.84433
0.99803
0.90483
0.58779
0.12533
-0.36812
-0.77051
-0.98229
-0.95106
-0.68455
-0.24869
0.24869
0.68455
0.95106
0.98229
0.77051
0.36812
-0.12533
-0.58779
-0.90483
-0.99803
-0.84433
-0.48175
-0.00000
0.48175
0.84433
0.99803
0.90483
0.58779
0.12533
-0.36812
-0.77051
-0.98229
-0.95106
-0.68455
-0.24869
0.24869
0.68455
0.95106
0.98229
0.77051
0.36812
-0.12533
-0.58779
-0.90483
-0.99803
-0.84433
-0.48175
-0.00000
0.48175
0.84433
0.99803
0.90483
0.58779
0.12533
-0.36812
-0.77051
-0.98229
-0.95106
-0.68455
-0.24869
0.24869
0.68455
0.95106
0.98229
0.77051
0.36812
-0.12533
-0.58779
-0.90483
-0.99803
-0.84433
-0.48175
-0.00000
0.48175
0.84433
0.99803
0.90483
0.58779
0.12533
-0.36812
-0.77051
-0.98229
-0.95106
-0.68455
-0.24869
0.24869
0.68455
0.95106
0.98229
0.77051
0.36812
-0.12533
-0.58779
-0.90483
-0.99803
-0.84433
-0.48175
-0.00000
0.48175
0.84433
0.99803
0.90483
0.58779
0.12533
-0.36812
-0.77051
-0.98229
-0.95106
-0.68455
-0.24869
0.24869
0.68455
0.95106
0.98229
0.77051
0.36812
-0.12533
-0.58779
-0.90483
-0.99803
-0.84433
-0.48175
-0.00000
0.48175
0.84433
0.99803
0.90483
0.58779
0.12533
-0.36812
-0.77051
-0.98229
-0.95106
-0.68455
-0.24869
0.24869
0.68455
0.95106
0.98229
0.77051
0.36812
-0.12533
-0.58779
-0.90483
-0.99803
-0.84433
-0.48175
0.00000
0.48175
0.84433
0.99803
0.90483
0.58779
0.12533
-0.36812
-0.77051
-0.98229
-0.95106
-0.68455
-0.24869
0.24869
0.68455
0.95106
0.98229
0.77051
0.36812
-0.12533
-0.58779
-0.90483
-0.99803
-0.84433
-0.48175
-0.00000
0.48175
0.84433
0.99803
0.90483
0.58779
0.12533
-0.36812
-0.77051
-0.98229
-0.95106
-0.68455
-0.24869
0.24869
0.68455
0.95106
0.98229
0.77051
0.36812
-0.12533
-0.58779
-0.90483
-0.99803
-0.84433
-0.48175
0.00000
0.48175
0.84433
0.99803
0.90483
0.58779
0.12533
-0.36812
-0.77051
-0.98229
-0.95106
-0.68455
-0.24869
0.24869
0.68455
0.95106
0.98229
0.77051
0.36812
-0.12533
-0.58779
-0.90483
-0.99803
-0.84433
-0.48175
-0.00000
0.48175
0.84433
0.99803
0.90483
0.58779
0.12533
-0.36812
-0.77051
-0.98229
-0.95106
-0.68455
-0.24869
0.24869
0.68455
0.95106
0.98229
0.77051
0.36812
-0.12533
-0.58779
-0.90483
-0.99803
-0.84433
-0.48175
0.00000
0.48175
0.84433
0.99803
0.90483
0.58779
0.12533
-0.36812
-0.77051
-0.98229
-0.95106
-0.68455
-0.24869
0.24869
0.68455
0.95106
0.98229
0.77051
0.36812
-0.12533
-0.58779
-0.90483
-0.99803
-0.84433
-0.48175
-0.00000
0.48175
0.84433
0.99803
0.90483
0.58779
0.12533
-0.36812
-0.77051
-0.98229
-0.95106
-0.68455
-0.24869
0.24869
0.68455
0.95106
0.98229
0.77051
0.36812
-0.12533
-0.58779
-0.90483
-0.99803
-0.84433
-0.48175
-0.00000
0.48175
0.84433
0.99803
0.90483
0.58779
0.12533
-0.36812
-0.77051
-0.98229
-0.95106
-0.68455
-0.24869
0.24869
0.68455
0.95106
0.98229
0.77051
0.36812
-0.12533
-0.58779
-0.90483
-0.99803
-0.84433
-0.48175
-0.00000
0.48175
0.84433
0.99803
0.90483
0.58779
0.12533
-0.36812
-0.77051
-0.98229
-0.95106
-0.68455
-0.24869
0.24869
0.68455
0.95106
0.98229
0.77051
0.36812
-0.12533
-0.58779
-0.90483
-0.99803
-0.84433
-0.48175
-0.00000
0.48175
0.84433
0.99803
0.90483
0.58779
0.12533
-0.36812
-0.77051
-0.98229
-0.95106
-0.68455
-0.24869
0.24869
0.68455
0.95106
0.98229
0.77051
0.36812
-0.12533
-0.58779
-0.90483
-0.99803
-0.84433
-0.48175
-0.00000
0.48175
0.84433
0.99803
0.90483
0.58779
0.12533
-0.36812
-0.77051
-0.98229
-0.95106
-0.68455
-0.24869
0.24869
0.68455
0.95106
0.98229
0.77051
0.36812
-0.12533
-0.58779
-0.90483
-0.99803
-0.84433
-0.48175
0.00000
0.48175
0.84433
0.99803
0.90483
0.58779
0.12533
-0.36812
-0.77051
-0.98229
-0.95106
-0.68455
-0.24869
0.24869
0.68455
0.95106
0.98229
0.77051
0.36812
-0.12533
-0.58779
-0.90483
-0.99803
-0.84433
-0.48175
-0.00000
0.48175
0.84433
0.99803
0.90483
0.58779
0.12533
-0.36812
-0.77051
-0.98229
-0.95106
-0.68455
-0.24869
0.24869
0.68455
0.95106
0.98229
0.77051
0.36812
-0.12533
-0.58779
-0.90483
-0.99803
-0.84433
-0.48175
0.00000
0.48175
0.84433
0.99803
0.90483
0.58779
0.12533
-0.36812
-0.77051
-0.98229
-0.95106
-0.68455
-0.24869
0.24869
0.68455
0.95106
0.98229
0.77051
0.36812
-0.12533
-0.58779
-0.90483
-0.99803
-0.84433
-0.48175
-0.00000
0.48175
0.84433
0.99803
0.90483
0.58779
0.12533
-0.36812
-0.77051
-0.98229
-0.95106
-0.68455
-0.24869
0.24869
0.68455
0.95106
0.98229
0.77051
0.36812
-0.12533
-0.58779
-0.90483
-0.99803
-0.84433
-0.48175
0.00000
0.48175
0.84433
0.99803
0.90483
0.58779
0.12533
-0.36812
-0.77051
-0.98229
-0.95106
-0.68455
-0.24869
0.24869
0.68455
0.95106
0.98229
0.77051
0.36812
-0.12533
-0.58779
-0.90483
-0.99803
-0.84433
-0.48175
0.00000
0.48175
0.84433
0.99803
0.90483
0.58779
0.12533
-0.36812
-0.77051
-0.98229
-0.95106
-0.68455
-0.24869
0.24869
0.68455
0.95106
0.98229
0.77051
0.36812
-0.12533
-0.58779
-0.90483
-0.99803
-0.84433
-0.48175
-0.00000
0.48175
0.84433
0.99803
0.90483
0.58779
0.12533
-0.36812
-0.77051
-0.98229
-0.95106
-0.68455
-0.24869
0.24869
0.68455
0.95106
0.98229
0.77051
0.36812
-0.12533
-0.58779
-0.90483
-0.99803
-0.84433
-0.48175
-0.00000
0.48175
0.84433
0.99803
0.90483
0.58779
0.12533
-0.36812
-0.77051
-0.98229
-0.95106
-0.68455
-0.24869
0.24869
0.68455
0.95106
0.98229
0.77051
0.36812
-0.12533
-0.58779
-0.90483
-0.99803
-0.84433
-0.48175
-0.00000
0.48175
0.84433
0.99803
0.90483
0.58779
0.12533
-0.36812
-0.77051
-0.98229
-0.95106
-0.68455
-0.24869
0.24869
0.68455
0.95106
0.98229
0.77051
0.36812
-0.12533
-0.58779
-0.90483
-0.99803
-0.84433
-0.48175
-0.00000
0.48175
0.84433
0.99803
0.90483
0.58779
0.12533
-0.36812
-0.77051
-0.98229
-0.95106
-0.68455
-0.24869
0.24869
0.68455
0.95106
0.98229
0.77051
0.36812
-0.12533
-0.58779
-0.90483
-0.99803
-0.84433
-0.48175
0.00000
0.48175
0.84433
0.99803
0.90483
0.58779
0.12533
-0.36812
-0.77051
-0.98229
-0.95106
-0.68455
-0.24869
0.24869
0.68455
0.95106
0.98229
0.77051
0.36812
-0.12533
-0.58779
-0.90483
-0.99803
-0.84433
-0.48175
-0.00000
0.48175
0.84433
0.99803
0.90483
0.58779
0.12533
-0.36812
-0.77051
-0.98229
-0.95106
-0.68455
-0.24869
0.24869
0.68455
0.95106
0.98229
0.77051
0.36812
-0.12533
-0.58779
-0.90483
-0.99803
-0.84433
-0.48175
0.00000
0.48175
0.84433
0.99803
0.90483
0.58779
0.12533
-0.36812
-0.77051
-0.98229
-0.95106
-0.68455
-0.24869
0.24869
0.68455
0.95106
0.98229
0.77051
0.36812
-0.12533
-0.58779
-0.90483
-0.99803
-0.84433
-0.48175
-0.00000
0.48175
0.84433
0.99803
0.90483
0.58779
0.12533
-0.36812
-0.77051
-0.98229
-0.95106
-0.68455
-0.24869
0.24869
0.68455
0.95106
0.98229
0.77051
0.36812
-0.12533
-0.58779
-0.90483
-0.99803
-0.84433
-0.48175
0.00000
0.48175
0.84433
0.99803
0.90483
0.58779
0.12533
-0.36812
-0.77051
-0.98229
-0.95106
-0.68455
-0.24869
0.24869
0.68455
0.95106
0.98229
0.77051
0.36812
-0.12533
-0.58779
-0.90483
-0.99803
-0.84433
-0.48175
0.00000
0.48175
0.84433
0.99803
0.90483
0.58779
0.12533
-0.36812
-0.77051
-0.98229
-0.95106
-0.68455
-0.24869
0.24869
0.68455
0.95106
0.98229
0.77051
0.36812
-0.12533
-0.58779
-0.90483
-0.99803
-0.84433
-0.48175
-0.00000
0.48175
0.84433
0.99803
0.90483
0.58779
0.12533
-0.36812
-0.77051
-0.98229
-0.95106
-0.68455
-0.24869
0.24869
0.68455
0.95106
0.98229
0.77051
0.36812
-0.12533
-0.58779
-0.90483
-0.99803
-0.84433
-0.48175
-0.00000
0.48175
0.84433
0.99803
0.90483
0.58779
0.12533
-0.36812
-0.77051
-0.98229
-0.95106
-0.68455
-0.24869
0.24869
0.68455
0.95106
0.98229
0.77051
0.36812
-0.12533
-0.58779
-0.90483
-0.99803
-0.84433
-0.48175
-0.00000
0.48175
0.84433
0.99803
0.90483
0.58779
0.12533
-0.36812
-0.77051
-0.98229
-0.95106
-0.68455
-0.24869
0.24869
0.68455
0.95106
0.98229
0.77051
0.36812
-0.12533
-0.58779
-0.90483
-0.99803
-0.84433
-0.48175
-0.00000
0.48175
0.84433
0.99803
0.90483
0.58779
0.12533
-0.36812
-0.77051
-0.98229
-0.95106
-0.68455
-0.24869
0.24869
0.68455
0.95106
0.98229
0.77051
0.36812
-0.12533
-0.58779
-0.90483
-0.99803
-0.84433
-0.48175
0.00000
0.48175
0.84433
0.99803
0.90483
0.58779
0.12533
-0.36812
-0.77051
-0.98229
-0.95106
-0.68455
-0.24869
0.24869
0.68455
0.95106
0.98229
0.77051
0.36812
-0.12533
-0.58779
-0.90483
-0.99803
-0.84433
-0.48175
-0.00000
0.48175
0.84433
0.99803
0.90483
0.58779
0.12533
-0.36812
-0.77051
-0.98229
-0.95106
-0.68455
-0.24869
0.24869
0.68455
0.95106
0.98229
0.77051
0.36812
-0.12533
-0.58779
-0.90483
-0.99803
-0.84433
-0.48175
0.00000
0.48175
0.84433
0.99803
0.90483
0.58779
0.12533
-0.36812
-0.77051
-0.98229
-0.95106
-0.68455
-0.24869
0.24869
0.68455
0.95106
0.98229
0.77051
0.36812
-0.12533
-0.58779
-0.90483
-0.99803
-0.84433
-0.48175
-0.00000
0.48175
0.84433
0.99803
0.90483
0.58779
0.12533
-0.36812
-0.77051
-0.98229
-0.95106
-0.68455
-0.24869
0.24869
0.68455
0.95106
0.98229
0.77051
0.36812
-0.12533
-0.58779
-0.90483
-0.99803
-0.84433
-0.48175
0.00000
0.48175
0.84433
0.99803
0.90483
0.58779
0.12533
-0.36812
-0.77051
-0.98229
-0.95106
-0.68455
-0.24869
0.24869
0.68455
0.95106
0.98229
0.77051
0.36812
-0.12533
-0.58779
-0.90483
-0.99803
-0.84433
-0.48175
0.00000
0.48175
0.84433
0.99803
0.90483
0.58779
0.12533
-0.36812
-0.77051
-0.98229
-0.95106
-0.68455
-0.24869
0.24869
0.68455
0.95106
0.98229
0.77051
0.36812
-0.12533
-0.58779
-0.90483
-0.99803
-0.84433
-0.48175
0.00000
0.48175
0.84433
0.99803
0.90483
0.58779
0.12533
-0.36812
-0.77051
-0.98229
-0.95106
-0.68455
-0.24869
0.24869
0.68455
0.95106
0.98229
0.77051
0.36812
-0.12533
-0.58779
-0.90483
-0.99803
-0.84433
-0.48175
-0.00000
0.48175
0.84433
0.99803
0.90483
0.58779
0.12533
-0.36812
-0.77051
-0.98229
-0.95106
-0.68455
-0.24869
0.24869
0.68455
0.95106
0.98229
0.77051
0.36812
-0.12533
-0.58779
-0.90483
-0.99803
-0.84433
-0.48175
-0.00000
0.48175
0.84433
0.99803
0.90483
0.58779
0.12533
-0.36812
-0.77051
-0.98229
-0.95106
-0.68455
-0.24869
0.24869
0.68455
0.95106
0.98229
0.77051
0.36812
-0.12533
-0.58779
-0.90483
-0.99803
-0.84433
-0.48175
-0.00000
0.48175
0.84433
0.99803
0.90483
0.58779
0.12533
-0.36812
-0.77051
-0.98229
-0.95106
-0.68455
-0.24869
0.24869
0.68455
0.95106
0.98229
0.77051
0.36812
-0.12533
-0.58779
-0.90483
-0.99803
-0.84433
-0.48175
0.00000
0.48175
0.84433
0.99803
0.90483
0.58779
0.12533
-0.36812
-0.77051
-0.98229
-0.95106
-0.68455
-0.24869
0.24869
0.68455
0.95106
0.98229
0.77051
0.36812
-0.12533
-0.58779
-0.90483
-0.99803
-0.84433
-0.48175
-0.00000
0.48175
0.84433
0.99803
0.90483
0.58779
0.12533
-0.36812
-0.77051
-0.98229
-0.95106
-0.68455
-0.24869
0.24869
0.68455
0.95106
0.98229
0.77051
0.36812
-0.12533
-0.58779
-0.90483
-0.99803
-0.84433
-0.48175
0.00000
0.48175
0.84433
0.99803
0.90483
0.58779
0.12533
-0.36812
-0.77051
-0.98229
-0.95106
-0.68455
-0.24869
0.24869
0.68455
0.95106
0.98229
0.77051
0.36812
-0.12533
-0.58779
-0.90483
-0.99803
-0.84433
-0.48175
-0.00000
0.48175
0.84433
0.99803
0.90483
0.58779
0.12533
-0.36812
-0.77051
-0.98229
-0.95106
-0.68455
-0.24869
0.24869
0.68455
0.95106
0.98229
0.77051
0.36812
-0.12533
-0.58779
-0.90483
-0.99803
-0.84433
-0.48175
0.00000
0.48175
0.84433
0.99803
0.90483
0.58779
0.12533
-0.36812
-0.77051
-0.98229
-0.95106
-0.68455
-0.24869
0.24869
0.68455
0.95106
0.98229
0.77051
0.36812
-0.12533
-0.58779
-0.90483
-0.99803
-0.84433
-0.48175
0.00000
0.48175
0.84433
0.99803
0.90483
0.58779
0.12533
-0.36812
-0.77051
-0.98229
-0.95106
-0.68455
-0.24869
0.24869
0.68455
0.95106
0.98229
0.77051
0.36812
-0.12533
-0.58779
-0.90483
-0.99803
-0.84433
-0.48175
0.00000
0.48175
0.84433
0.99803
0.90483
0.58779
0.12533
-0.36812
-0.77051
-0.98229
-0.95106
-0.68455
-0.24869
0.24869
0.68455
0.95106
0.98229
0.77051
0.36812
-0.12533
-0.58779
-0.90483
-0.99803
-0.84433
-0.48175
-0.00000
0.48175
0.84433
0.99803
0.90483
0.58779
0.12533
-0.36812
-0.77051
-0.98229
-0.95106
-0.68455
-0.24869
0.24869
0.68455
0.95106
0.98229
0.77051
0.36812
-0.12533
-0.58779
-0.90483
-0.99803
-0.84433
-0.48175
-0.00000
0.48175
0.84433
0.99803
0.90483
0.58779
0.12533
-0.36812
-0.77051
-0.98229
-0.95106
-0.68455
-0.24869
0.24869
0.68455
0.95106
0.98229
0.77051
0.36812
-0.12533
-0.58779
-0.90483
-0.99803
-0.84433
-0.48175
-0.00000
0.48175
0.84433
0.99803
0.90483
0.58779
0.12533
-0.36812
-0.77051
-0.98229
-0.95106
-0.68455
-0.24869
0.24869
0.68455
0.95106
0.98229
0.77051
0.36812
-0.12533
-0.58779
-0.90483
-0.99803
-0.84433
-0.48175
0.00000
0.48175
0.84433
0.99803
0.90483
0.58779
0.12533
-0.36812
-0.77051
-0.98229
-0.95106
-0.68455
-0.24869
0.24869
0.68455
0.95106
0.98229
0.77051
0.36812
-0.12533
-0.58779
-0.90483
-0.99803
-0.84433
-0.48175
-0.00000
0.48175
0.84433
0.99803
0.90483
0.58779
0.12533
-0.36812
-0.77051
-0.98229
-0.95106
-0.68455
-0.24869
0.24869
0.68455
0.95106
0.98229
0.77051
0.36812
-0.12533
-0.58779
-0.90483
-0.99803
-0.84433
-0.48175
0.00000
0.48175
0.84433
0.99803
0.90483
0.58779
0.12533
-0.36812
-0.77051
-0.98229
-0.95106
-0.68455
-0.24869
0.24869
0.68455
0.95106
0.98229
0.77051
0.36812
-0.12533
-0.58779
-0.90483
-0.99803
-0.84433
-0.48175
-0.00000
0.48175
0.84433
0.99803
0.90483
0.58779
0.12533
-0.36812
-0.77051
-0.98229
-0.95106
-0.68455
-0.24869
0.24869
0.68455
0.95106
0.98229
0.77051
0.36812
-0.12533
-0.58779
-0.90483
-0.99803
-0.84433
-0.48175
0.00000
0.48175
0.84433
0.99803
0.90483
0.58779
0.12533
-0.36812
-0.77051
-0.98229
-0.95106
-0.68455
-0.24869
0.24869
0.68455
0.95106
0.98229
0.77051
0.36812
-0.12533
-0.58779
-0.90483
-0.99803
-0.84433
-0.48175
0.00000
0.48175
0.84433
0.99803
0.90483
0.58779
0.12533
-0.36812
-0.77051
-0.98229
-0.95106
-0.68455
-0.24869
0.24869
0.68455
0.95106
0.98229
0.77051
0.36812
-0.12533
-0.58779
-0.90483
-0.99803
-0.84433
-0.48175
0.00000
0.48175
0.84433
0.99803
0.90483
0.58779
0.12533
-0.36812
-0.77051
-0.98229
-0.95106
-0.68455
-0.24869
0.24869
0.68455
0.95106
0.98229
0.77051
0.36812
-0.12533
-0.58779
-0.90483
-0.99803
-0.84433
-0.48175
0.00000
0.48175
0.84433
0.99803
0.90483
0.58779
0.12533
-0.36812
-0.77051
-0.98229
-0.95106
-0.68455
-0.24869
0.24869
0.68455
0.95106
0.98229
0.77051
0.36812
-0.12533
-0.58779
-0.90483
-0.99803
-0.84433
-0.48175
-0.00000
0.48175
0.84433
0.99803
0.90483
0.58779
0.12533
-0.36812
-0.77051
-0.98229
-0.95106
-0.68455
-0.24869
0.24869
0.68455
0.95106
0.98229
0.77051
0.36812
-0.12533
-0.58779
-0.90483
-0.99803
-0.84433
-0.48175
-0.00000
0.48175
0.84433
0.99803
0.90483
0.58779
0.12533
-0.36812
-0.77051
-0.98229
-0.95106
-0.68455
-0.24869
0.24869
0.68455
0.95106
0.98229
0.77051
0.36812
-0.12533
-0.58779
-0.90483
-0.99803
-0.84433
-0.48175
-0.00000
0.48175
0.84433
0.99803
0.90483
0.58779
0.12533
-0.36812
-0.77051
-0.98229
-0.95106
-0.68455
-0.24869
0.24869
0.68455
0.95106
0.98229
0.77051
0.36812
-0.12533
-0.58779
-0.90483
-0.99803
-0.84433
-0.48175
-0.00000
0.48175
0.84433
0.99803
0.90483
0.58779
0.12533
-0.36812
-0.77051
-0.98229
-0.95106
-0.68455
-0.24869
0.24869
0.68455
0.95106
0.98229
0.77051
0.36812
-0.12533
-0.58779
-0.90483
-0.99803
-0.84433
-0.48175
-0.00000
0.48175
0.84433
0.99803
0.90483
0.58779
0.12533
-0.36812
-0.77051
-0.98229
-0.95106
-0.68455
-0.24869
0.24869
0.68455
0.95106
0.98229
0.77051
0.36812
-0.12533
-0.58779
-0.90483
-0.99803
-0.84433
-0.48175
0.00000
0.48175
0.84433
0.99803
0.90483
0.58779
0.12533
-0.36812
-0.77051
-0.98229
-0.95106
-0.68455
-0.24869
0.24869
0.68455
0.95106
0.98229
0.77051
0.36812
-0.12533
-0.58779
-0.90483
-0.99803
-0.84433
-0.48175
-0.00000
0.48175
0.84433
0.99803
0.90483
0.58779
0.12533
-0.36812
-0.77051
-0.98229
-0.95106
-0.68455
-0.24869
0.24869
0.68455
0.95106
0.98229
0.77051
0.36812
-0.12533
-0.58779
-0.90483
-0.99803
-0.84433
-0.48175
-0.00000
0.48175
0.84433
0.99803
0.90483
0.58779
0.12533
-0.36812
-0.77051
-0.98229
-0.95106
-0.68455
-0.24869
0.24869
0.68455
0.95106
0.98229
0.77051
0.36812
-0.12533
-0.58779
-0.90483
-0.99803
-0.84433
-0.48175
-0.00000
0.48175
0.84433
0.99803
0.90483
0.58779
0.12533
-0.36812
-0.77051
-0.98229
-0.95106
-0.68455
-0.24869
0.24869
0.68455
0.95106
0.98229
0.77051
0.36812
-0.12533
-0.58779
-0.90483
-0.99803
-0.84433
-0.48175
-0.00000
0.48175
0.84433
0.99803
0.90483
0.58779
0.12533
-0.36812
-0.77051
-0.98229
-0.95106
-0.68455
-0.24869
0.24869
0.68455
0.95106
0.98229
0.77051
0.36812
-0.12533
-0.58779
-0.90483
-0.99803
-0.84433
-0.48175
-0.00000
0.48175
0.84433
0.99803
0.90483
0.58779
0.12533
-0.36812
-0.77051
-0.98229
-0.95106
-0.68455
-0.24869
0.24869
0.68455
0.95106
0.98229
0.77051
0.36812
-0.12533
-0.58779
-0.90483
-0.99803
-0.84433
-0.48175
-0.00000
0.48175
0.84433
0.99803
0.90483
0.58779
0.12533
-0.36812
-0.77051
-0.98229
-0.95106
-0.68455
-0.24869
0.24869
0.68455
0.95106
0.98229
0.77051
0.36812
-0.12533
-0.58779
-0.90483
-0.99803
-0.84433
-0.48175
-0.00000
0.48175
0.84433
0.99803
0.90483
0.58779
0.12533
-0.36812
-0.77051
-0.98229
-0.95106
-0.68455
-0.24869
0.24869
0.68455
0.95106
0.98229
0.77051
0.36812
-0.12533
-0.58779
-0.90483
-0.99803
-0.84433
-0.48175
-0.00000
0.48175
0.84433
0.99803
0.90483
0.58779
0.12533
-0.36812
-0.77051
-0.98229
-0.95106
-0.68455
-0.24869
0.24869
0.68455
0.95106
0.98229
0.77051
0.36812
-0.12533
-0.58779
-0.90483
-0.99803
-0.84433
-0.48175
-0.00000
0.48175
0.84433
0.99803
0.90483
0.58779
0.12533
-0.36812
-0.77051
-0.98229
-0.95106
-0.68455
-0.24869
0.24869
0.68455
0.95106
0.98229
0.77051
0.36812
-0.12533
-0.58779
-0.90483
-0.99803
-0.84433
-0.48175
0.00000
0.48175
0.84433
0.99803
0.90483
0.58779
0.12533
-0.36812
-0.77051
-0.98229
-0.95106
-0.68455
-0.24869
0.24869
0.68455
0.95106
0.98229
0.77051
0.36812
-0.12533
-0.58779
-0.90483
-0.99803
-0.84433
-0.48175
-0.00000
0.48175
0.84433
0.99803
0.90483
0.58779
0.12533
-0.36812
-0.77051
-0.98229
-0.95106
-0.68455
-0.24869
0.24869
0.68455
0.95106
0.98229
0.77051
0.36812
-0.12533
-0.58779
-0.90483
-0.99803
-0.84433
-0.48175
-0.00000
0.48175
0.84433
0.99803
0.90483
0.58779
0.12533
-0.36812
-0.77051
-0.98229
-0.95106
-0.68455
-0.24869
0.24869
0.68455
0.95106
0.98229
0.77051
0.36812
-0.12533
-0.58779
-0.90483
-0.99803
-0.84433
-0.48175
-0.00000
0.48175
0.84433
0.99803
0.90483
0.58779
0.12533
-0.36812
-0.77051
-0.98229
-0.95106
-0.68455
-0.24869
0.24869
0.68455
0.95106
0.98229
0.77051
0.36812
-0.12533
-0.58779
-0.90483
-0.99803
-0.84433
-0.48175
0.00000
0.48175
0.84433
0.99803
0.90483
0.58779
0.12533
-0.36812
-0.77051
-0.98229
-0.95106
-0.68455
-0.24869
0.24869
0.68455
0.95106
0.98229
0.77051
0.36812
-0.12533
-0.58779
-0.90483
-0.99803
-0.84433
-0.48175
0.00000
0.48175
0.84433
0.99803
0.90483
0.58779
0.12533
-0.36812
-0.77051
-0.98229
-0.95106
-0.68455
-0.24869
0.24869
0.68455
0.95106
0.98229
0.77051
0.36812
-0.12533
-0.58779
-0.90483
-0.99803
-0.84433
-0.48175
-0.00000
0.48175
0.84433
0.99803
0.90483
0.58779
0.12533
-0.36812
-0.77051
-0.98229
-0.95106
-0.68455
-0.24869
0.24869
0.68455
0.95106
0.98229
0.77051
0.36812
-0.12533
-0.58779
-0.90483
-0.99803
-0.84433
-0.48175
-0.00000
0.48175
0.84433
0.99803
0.90483
0.58779
0.12533
-0.36812
-0.77051
-0.98229
-0.95106
-0.68455
-0.24869
0.24869
0.68455
0.95106
0.98229
0.77051
0.36812
-0.12533
-0.58779
-0.90483
-0.99803
-0.84433
-0.48175
-0.00000
0.48175
0.84433
0.99803
0.90483
0.58779
0.12533
-0.36812
-0.77051
-0.98229
-0.95106
-0.68455
-0.24869
0.24869
0.68455
0.95106
0.98229
0.77051
0.36812
-0.12533
-0.58779
-0.90483
-0.99803
-0.84433
-0.48175
0.00000
0.48175
0.84433
0.99803
0.90483
0.58779
0.12533
-0.36812
-0.77051
-0.98229
-0.95106
-0.68455
-0.24869
0.24869
0.68455
0.95106
0.98229
0.77051
0.36812
-0.12533
-0.58779
-0.90483
-0.99803
-0.84433
-0.48175
-0.00000
0.48175
0.84433
0.99803
0.90483
0.58779
0.12533
-0.36812
-0.77051
-0.98229
-0.95106
-0.68455
-0.24869
0.24869
0.68455
0.95106
0.98229
0.77051
0.36812
-0.12533
-0.58779
-0.90483
-0.99803
-0.84433
-0.48175
0.00000
0.48175
0.84433
0.99803
0.90483
0.58779
0.12533
-0.36812
-0.77051
-0.98229
-0.95106
-0.68455
-0.24869
0.24869
0.68455
0.95106
0.98229
0.77051
0.36812
-0.12533
-0.58779
-0.90483
-0.99803
-0.84433
-0.48175
-0.00000
0.48175
0.84433
0.99803
0.90483
0.58779
0.12533
-0.36812
-0.77051
-0.98229
-0.95106
-0.68455
-0.24869
0.24869
0.68455
0.95106
0.98229
0.77051
0.36812
-0.12533
-0.58779
-0.90483
-0.99803
-0.84433
-0.48175
0.00000
0.48175
0.84433
0.99803
0.90483
0.58779
0.12533
-0.36812
-0.77051
-0.98229
-0.95106
-0.68455
-0.24869
0.24869
0.68455
0.95106
0.98229
0.77051
0.36812
-0.12533
-0.58779
-0.90483
-0.99803
-0.84433
-0.48175
-0.00000
0.48175
0.84433
0.99803
0.90483
0.58779
0.12533
-0.36812
-0.77051
-0.98229
-0.95106
-0.68455
-0.24869
0.24869
0.68455
0.95106
0.98229
0.77051
0.36812
-0.12533
-0.58779
-0.90483
-0.99803
-0.84433
-0.48175
0.00000
0.48175
0.84433
0.99803
0.90483
0.58779
0.12533
-0.36812
-0.77051
-0.98229
-0.95106
-0.68455
-0.24869
0.24869
0.68455
0.95106
0.98229
0.77051
0.36812
-0.12533
-0.58779
-0.90483
-0.99803
-0.84433
-0.48175
0.00000
0.48175
0.84433
0.99803
0.90483
0.58779
0.12533
-0.36812
-0.77051
-0.98229
-0.95106
-0.68455
-0.24869
0.24869
0.68455
0.95106
0.98229
0.77051
0.36812
-0.12533
-0.58779
-0.90483
-0.99803
-0.84433
-0.48175
-0.00000
0.48175
0.84433
0.99803
0.90483
0.58779
0.12533
-0.36812
-0.77051
-0.98229
-0.95106
-0.68455
-0.24869
0.24869
0.68455
0.95106
0.98229
0.77051
0.36812
-0.12533
-0.58779
-0.90483
-0.99803
-0.84433
-0.48175
-0.00000
0.48175
0.84433
0.99803
0.90483
0.58779
0.12533
-0.36812
-0.77051
-0.98229
-0.95106
-0.68455
-0.24869
0.24869
0.68455
0.95106
0.98229
0.77051
0.36812
-0.12533
-0.58779
-0.90483
-0.99803
-0.84433
-0.48175
-0.00000
0.48175
0.84433
0.99803
0.90483
0.58779
0.12533
-0.36812
-0.77051
-0.98229
-0.95106
-0.68455
-0.24869
0.24869
0.68455
0.95106
0.98229
0.77051
0.36812
-0.12533
-0.58779
-0.90483
-0.99803
-0.84433
-0.48175
0.00000
0.48175
0.84433
0.99803
0.90483
0.58779
0.12533
-0.36812
-0.77051
-0.98229
-0.95106
-0.68455
-0.24869
0.24869
0.68455
0.95106
0.98229
0.77051
0.36812
-0.12533
-0.58779
-0.90483
-0.99803
-0.84433
-0.48175
0.00000
0.48175
0.84433
0.99803
0.90483
0.58779
0.12533
-0.36812
-0.77051
-0.98229
-0.95106
-0.68455
-0.24869
0.24869
0.68455
0.95106
0.98229
0.77051
0.36812
-0.12533
-0.58779
-0.90483
-0.99803
-0.84433
-0.48175
-0.00000
0.48175
0.84433
0.99803
0.90483
0.58779
0.12533
-0.36812
-0.77051
-0.98229
-0.95106
-0.68455
-0.24869
0.24869
0.68455
0.95106
0.98229
0.77051
0.36812
-0.12533
-0.58779
-0.90483
-0.99803
-0.84433
-0.48175
-0.00000
0.48175
0.84433
0.99803
0.90483
0.58779
0.12533
-0.36812
-0.77051
-0.98229
-0.95106
-0.68455
-0.24869
0.24869
0.68455
0.95106
0.98229
0.77051
0.36812
-0.12533
-0.58779
-0.90483
-0.99803
-0.84433
-0.48175
0.00000
0.48175
0.84433
0.99803
0.90483
0.58779
0.12533
-0.36812
-0.77051
-0.98229
-0.95106
-0.68455
-0.24869
0.24869
0.68455
0.95106
0.98229
0.77051
0.36812
-0.12533
-0.58779
-0.90483
-0.99803
-0.84433
-0.48175
0.00000
0.48175
0.84433
0.99803
0.90483
0.58779
0.12533
-0.36812
-0.77051
-0.98229
-0.95106
-0.68455
-0.24869
0.24869
0.68455
0.95106
0.98229
0.77051
0.36812
-0.12533
-0.58779
-0.90483
-0.99803
-0.84433
-0.48175
0.00000
0.48175
0.84433
0.99803
0.90483
0.58779
0.12533
-0.36812
-0.77051
-0.98229
-0.95106
-0.68455
-0.24869
0.24869
0.68455
0.95106
0.98229
0.77051
0.36812
-0.12533
-0.58779
-0.90483
-0.99803
-0.84433
-0.48175
-0.00000
0.48175
0.84433
0.99803
0.90483
0.58779
0.12533
-0.36812
-0.77051
-0.98229
-0.95106
-0.68455
-0.24869
0.24869
0.68455
0.95106
0.98229
0.77051
0.36812
-0.12533
-0.58779
-0.90483
-0.99803
-0.84433
-0.48175
-0.00000
0.48175
0.84433
0.99803
0.90483
0.58779
0.12533
-0.36812
-0.77051
-0.98229
-0.95106
-0.68455
-0.24869
0.24869
0.68455
0.95106
0.98229
0.77051
0.36812
-0.12533
-0.58779
-0.90483
-0.99803
-0.84433
-0.48175
0.00000
0.48175
0.84433
0.99803
0.90483
0.58779
0.12533
-0.36812
-0.77051
-0.98229
-0.95106
-0.68455
-0.24869
0.24869
0.68455
0.95106
0.98229
0.77051
0.36812
-0.12533
-0.58779
-0.90483
-0.99803
-0.84433
-0.48175
-0.00000
0.48175
0.84433
0.99803
0.90483
0.58779
0.12533
-0.36812
-0.77051
-0.98229
-0.95106
-0.68455
-0.24869
0.24869
0.68455
0.95106
0.98229
0.77051
0.36812
-0.12533
-0.58779
-0.90483
-0.99803
-0.84433
-0.48175
0.00000
0.48175
0.84433
0.99803
0.90483
0.58779
0.12533
-0.36812
-0.77051
-0.98229
-0.95106
-0.68455
-0.24869
0.24869
0.68455
0.95106
0.98229
0.77051
0.36812
-0.12533
-0.58779
-0.90483
-0.99803
-0.84433
-0.48175
-0.00000
0.48175
0.84433
0.99803
0.90483
0.58779
0.12533
-0.36812
-0.77051
-0.98229
-0.95106
-0.68455
-0.24869
0.24869
0.68455
0.95106
0.98229
0.77051
0.36812
-0.12533
-0.58779
-0.90483
-0.99803
-0.84433
-0.48175
0.00000
0.48175
0.84433
0.99803
0.90483
0.58779
0.12533
-0.36812
-0.77051
-0.98229
-0.95106
-0.68455
-0.24869
0.24869
0.68455
0.95106
0.98229
0.77051
0.36812
-0.12533
-0.58779
-0.90483
-0.99803
-0.84433
-0.48175
-0.00000
0.48175
0.84433
0.99803
0.90483
0.58779
0.12533
-0.36812
-0.77051
-0.98229
-0.95106
-0.68455
-0.24869
0.24869
0.68455
0.95106
0.98229
0.77051
0.36812
-0.12533
-0.58779
-0.90483
-0.99803
-0.84433
-0.48175
0.00000
0.48175
0.84433
0.99803
0.90483
0.58779
0.12533
-0.36812
-0.77051
-0.98229
-0.95106
-0.68455
-0.24869
0.24869
0.68455
0.95106
0.98229
0.77051
0.36812
-0.12533
-0.58779
-0.90483
-0.99803
-0.84433
-0.48175
0.00000
0.48175
0.84433
0.99803
0.90483
0.58779
0.12533
-0.36812
-0.77051
-0.98229
-0.95106
-0.68455
-0.24869
0.24869
0.68455
0.95106
0.98229
0.77051
0.36812
-0.12533
-0.58779
-0.90483
-0.99803
-0.84433
-0.48175
0.00000
0.48175
0.84433
0.99803
0.90483
0.58779
0.12533
-0.36812
-0.77051
-0.98229
-0.95106
-0.68455
-0.24869
0.24869
0.68455
0.95106
0.98229
0.77051
0.36812
-0.12533
-0.58779
-0.90483
-0.99803
-0.84433
-0.48175
-0.00000
0.48175
0.84433
0.99803
0.90483
0.58779
0.12533
-0.36812
-0.77051
-0.98229
-0.95106
-0.68455
-0.24869
0.24869
0.68455
0.95106
0.98229
0.77051
0.36812
-0.12533
-0.58779
-0.90483
-0.99803
-0.84433
-0.48175
-0.00000
0.48175
0.84433
0.99803
0.90483
0.58779
0.12533
-0.36812
-0.77051
-0.98229
-0.95106
-0.68455
-0.24869
0.24869
0.68455
0.95106
0.98229
0.77051
0.36812
-0.12533
-0.58779
-0.90483
-0.99803
-0.84433
-0.48175
0.00000
0.48175
0.84433
0.99803
0.90483
0.58779
0.12533
-0.36812
-0.77051
-0.98229
-0.95106
-0.68455
-0.24869
0.24869
0.68455
0.95106
0.98229
0.77051
0.36812
-0.12533
-0.58779
-0.90483
-0.99803
-0.84433
-0.48175
0.00000
0.48175
0.84433
0.99803
0.90483
0.58779
0.12533
-0.36812
-0.77051
-0.98229
-0.95106
-0.68455
-0.24869
0.24869
0.68455
0.95106
0.98229
0.77051
0.36812
-0.12533
-0.58779
-0.90483
-0.99803
-0.84433
-0.48175
-0.00000
0.48175
0.84433
0.99803
0.90483
0.58779
0.12533
-0.36812
-0.77051
-0.98229
-0.95106
-0.68455
-0.24869
0.24869
0.68455
0.95106
0.98229
0.77051
0.36812
-0.12533
-0.58779
-0.90483
-0.99803
-0.84433
-0.48175
-0.00000
0.48175
0.84433
0.99803
0.90483
0.58779
0.12533
-0.36812
-0.77051
-0.98229
-0.95106
-0.68455
-0.24869
0.24869
0.68455
0.95106
0.98229
0.77051
0.36812
-0.12533
-0.58779
-0.90483
-0.99803
-0.84433
-0.48175
0.00000
0.48175
0.84433
0.99803
0.90483
0.58779
0.12533
-0.36812
-0.77051
-0.98229
-0.95106
-0.68455
-0.24869
0.24869
0.68455
0.95106
0.98229
0.77051
0.36812
-0.12533
-0.58779
-0.90483
-0.99803
-0.84433
-0.48175
0.00000
0.48175
0.84433
0.99803
0.90483
0.58779
0.12533
-0.36812
-0.77051
-0.98229
-0.95106
-0.68455
-0.24869
0.24869
0.68455
0.95106
0.98229
0.77051
0.36812
-0.12533
-0.58779
-0.90483
-0.99803
-0.84433
-0.48175
0.00000
0.48175
0.84433
0.99803
0.90483
0.58779
0.12533
-0.36812
-0.77051
-0.98229
-0.95106
-0.68455
-0.24869
0.24869
0.68455
0.95106
0.98229
0.77051
0.36812
-0.12533
-0.58779
-0.90483
-0.99803
-0.84433
-0.48175
-0.00000
0.48175
0.84433
0.99803
0.90483
0.58779
0.12533
-0.36812
-0.77051
-0.98229
-0.95106
-0.68455
-0.24869
0.24869
0.68455
0.95106
0.98229
0.77051
0.36812
-0.12533
-0.58779
-0.90483
-0.99803
-0.84433
-0.48175
-0.00000
0.48175
0.84433
0.99803
0.90483
0.58779
0.12533
-0.36812
-0.77051
-0.98229
-0.95106
-0.68455
-0.24869
0.24869
0.68455
0.95106
0.98229
0.77051
0.36812
-0.12533
-0.58779
-0.90483
-0.99803
-0.84433
-0.48175
0.00000
0.48175
0.84433
0.99803
0.90483
0.58779
0.12533
-0.36812
-0.77051
-0.98229
-0.95106
-0.68455
-0.24869
0.24869
0.68455
0.95106
0.98229
0.77051
0.36812
-0.12533
-0.58779
-0.90483
-0.99803
-0.84433
-0.48175
-0.00000
0.48175
0.84433
0.99803
0.90483
0.58779
0.12533
-0.36812
-0.77051
-0.98229
-0.95106
-0.68455
-0.24869
0.24869
0.68455
0.95106
0.98229
0.77051
0.36812
-0.12533
-0.58779
-0.90483
-0.99803
-0.84433
-0.48175
0.00000
0.48175
0.84433
0.99803
0.90483
0.58779
0.12533
-0.36812
-0.77051
-0.98229
-0.95106
-0.68455
-0.24869
0.24869
0.68455
0.95106
0.98229
0.77051
0.36812
-0.12533
-0.58779
-0.90483
-0.99803
-0.84433
-0.48175
-0.00000
0.48175
0.84433
0.99803
0.90483
0.58779
0.12533
-0.36812
-0.77051
-0.98229
-0.95106
-0.68455
-0.24869
0.24869
0.68455
0.95106
0.98229
0.77051
0.36812
-0.12533
-0.58779
-0.90483
-0.99803
-0.84433
-0.48175
0.00000
0.48175
0.84433
0.99803
0.90483
0.58779
0.12533
-0.36812
-0.77051
-0.98229
-0.95106
-0.68455
-0.24869
0.24869
0.68455
0.95106
0.98229
0.77051
0.36812
-0.12533
-0.58779
-0.90483
-0.99803
-0.84433
-0.48175
-0.00000
0.48175
0.84433
0.99803
0.90483
0.58779
0.12533
-0.36812
-0.77051
-0.98229
-0.95106
-0.68455
-0.24869
0.24869
0.68455
0.95106
0.98229
0.77051
0.36812
-0.12533
-0.58779
-0.90483
-0.99803
-0.84433
-0.48175
0.00000
0.48175
0.84433
0.99803
0.90483
0.58779
0.12533
-0.36812
-0.77051
-0.98229
-0.95106
-0.68455
-0.24869
0.24869
0.68455
0.95106
0.98229
0.77051
0.36812
-0.12533
-0.58779
-0.90483
-0.99803
-0.84433
-0.48175
0.00000
0.48175
0.84433
0.99803
0.90483
0.58779
0.12533
-0.36812
-0.77051
-0.98229
-0.95106
-0.68455
-0.24869
0.24869
0.68455
0.95106
0.98229
0.77051
0.36812
-0.12533
-0.58779
-0.90483
-0.99803
-0.84433
-0.48175
0.00000
0.48175
0.84433
0.99803
0.90483
0.58779
0.12533
-0.36812
-0.77051
-0.98229
-0.95106
-0.68455
-0.24869
0.24869
0.68455
0.95106
0.98229
0.77051
0.36812
-0.12533
-0.58779
-0.90483
-0.99803
-0.84433
-0.48175
-0.00000
0.48175
0.84433
0.99803
0.90483
0.58779
0.12533
-0.36812
-0.77051
-0.98229
-0.95106
-0.68455
-0.24869
0.24869
0.68455
0.95106
0.98229
0.77051
0.36812
-0.12533
-0.58779
-0.90483
-0.99803
-0.84433
-0.48175
-0.00000
0.48175
0.84433
0.99803
0.90483
0.58779
0.12533
-0.36812
-0.77051
-0.98229
-0.95106
-0.68455
-0.24869
0.24869
0.68455
0.95106
0.98229
0.77051
0.36812
-0.12533
-0.58779
-0.90483
-0.99803
-0.84433
-0.48175
0.00000
0.48175
0.84433
0.99803
0.90483
0.58779
0.12533
-0.36812
-0.77051
-0.98229
-0.95106
-0.68455
-0.24869
0.24869
0.68455
0.95106
0.98229
0.77051
0.36812
-0.12533
-0.58779
-0.90483
-0.99803
-0.84433
-0.48175
0.00000
0.48175
0.84433
0.99803
0.90483
0.58779
0.12533
-0.36812
-0.77051
-0.98229
-0.95106
-0.68455
-0.24869
0.24869
0.68455
0.95106
0.98229
0.77051
0.36812
-0.12533
-0.58779
-0.90483
-0.99803
-0.84433
-0.48175
-0.00000
0.48175
0.84433
0.99803
0.90483
0.58779
0.12533
-0.36812
-0.77051
-0.98229
-0.95106
-0.68455
-0.24869
0.24869
0.68455
0.95106
0.98229
0.77051
0.36812
-0.12533
-0.58779
-0.90483
-0.99803
-0.84433
-0.48175
-0.00000
0.48175
0.84433
0.99803
0.90483
0.58779
0.12533
-0.36812
-0.77051
-0.98229
-0.95106
-0.68455
-0.24869
0.24869
0.68455
0.95106
0.98229
0.77051
0.36812
-0.12533
-0.58779
-0.90483
-0.99803
-0.84433
-0.48175
0.00000
0.48175
0.84433
0.99803
0.90483
0.58779
0.12533
-0.36812
-0.77051
-0.98229
-0.95106
-0.68455
-0.24869
0.24869
0.68455
0.95106
0.98229
0.77051
0.36812
-0.12533
-0.58779
-0.90483
-0.99803
-0.84433
-0.48175
0.00000
0.48175
0.84433
0.99803
0.90483
0.58779
0.12533
-0.36812
-0.77051
-0.98229
-0.95106
-0.68455
-0.24869
0.24869
0.68455
0.95106
0.98229
0.77051
0.36812
-0.12533
-0.58779
-0.90483
-0.99803
-0.84433
-0.48175
0.00000
0.48175
0.84433
0.99803
0.90483
0.58779
0.12533
-0.36812
-0.77051
-0.98229
-0.95106
-0.68455
-0.24869
0.24869
0.68455
0.95106
0.98229
0.77051
0.36812
-0.12533
-0.58779
-0.90483
-0.99803
-0.84433
-0.48175
-0.00000
0.48175
0.84433
0.99803
0.90483
0.58779
0.12533
-0.36812
-0.77051
-0.98229
-0.95106
-0.68455
-0.24869
0.24869
0.68455
0.95106
0.98229
0.77051
0.36812
-0.12533
-0.58779
-0.90483
-0.99803
-0.84433
-0.48175
0.00000
0.48175
0.84433
0.99803
0.90483
0.58779
0.12533
-0.36812
-0.77051
-0.98229
-0.95106
-0.68455
-0.24869
0.24869
0.68455
0.95106
0.98229
0.77051
0.36812
-0.12533
-0.58779
-0.90483
-0.99803
-0.84433
-0.48175
-0.00000
0.48175
0.84433
0.99803
0.90483
0.58779
0.12533
-0.36812
-0.77051
-0.98229
-0.95106
-0.68455
-0.24869
0.24869
0.68455
0.95106
0.98229
0.77051
0.36812
-0.12533
-0.58779
-0.90483
-0.99803
-0.84433
-0.48175
-0.00000
0.48175
0.84433
0.99803
0.90483
0.58779
0.12533
-0.36812
-0.77051
-0.98229
-0.95106
-0.68455
-0.24869
0.24869
0.68455
0.95106
0.98229
0.77051
0.36812
-0.12533
-0.58779
-0.90483
-0.99803
-0.84433
-0.48175
0.00000
0.48175
0.84433
0.99803
0.90483
0.58779
0.12533
-0.36812
-0.77051
-0.98229
-0.95106
-0.68455
-0.24869
0.24869
0.68455
0.95106
0.98229
0.77051
0.36812
-0.12533
-0.58779
-0.90483
-0.99803
-0.84433
-0.48175
-0.00000
0.48175
0.84433
0.99803
0.90483
0.58779
0.12533
-0.36812
-0.77051
-0.98229
-0.95106
-0.68455
-0.24869
0.24869
0.68455
0.95106
0.98229
0.77051
0.36812
-0.12533
-0.58779
-0.90483
-0.99803
-0.84433
-0.48175
-0.00000
0.48175
0.84433
0.99803
0.90483
0.58779
0.12533
-0.36812
-0.77051
-0.98229
-0.95106
-0.68455
-0.24869
0.24869
0.68455
0.95106
0.98229
0.77051
0.36812
-0.12533
-0.58779
-0.90483
-0.99803
-0.84433
-0.48175
-0.00000
0.48175
0.84433
0.99803
0.90483
0.58779
0.12533
-0.36812
-0.77051
-0.98229
-0.95106
-0.68455
-0.24869
0.24869
0.68455
0.95106
0.98229
0.77051
0.36812
-0.12533
-0.58779
-0.90483
-0.99803
-0.84433
-0.48175
0.00000
0.48175
0.84433
0.99803
0.90483
0.58779
0.12533
-0.36812
-0.77051
-0.98229
-0.95106
-0.68455
-0.24869
0.24869
0.68455
0.95106
0.98229
0.77051
0.36812
-0.12533
-0.58779
-0.90483
-0.99803
-0.84433
-0.48175
0.00000
0.48175
0.84433
0.99803
0.90483
0.58779
0.12533
-0.36812
-0.77051
-0.98229
-0.95106
-0.68455
-0.24869
0.24869
0.68455
0.95106
0.98229
0.77051
0.36812
-0.12533
-0.58779
-0.90483
-0.99803
-0.84433
-0.48175
-0.00000
0.48175
0.84433
0.99803
0.90483
0.58779
0.12533
-0.36812
-0.77051
-0.98229
-0.95106
-0.68455
-0.24869
0.24869
0.68455
0.95106
0.98229
0.77051
0.36812
-0.12533
-0.58779
-0.90483
-0.99803
-0.84433
-0.48175
-0.00000
0.48175
0.84433
0.99803
0.90483
0.58779
0.12533
-0.36812
-0.77051
-0.98229
-0.95106
-0.68455
-0.24869
0.24869
0.68455
0.95106
0.98229
0.77051
0.36812
-0.12533
-0.58779
-0.90483
-0.99803
-0.84433
-0.48175
0.00000
0.48175
0.84433
0.99803
0.90483
0.58779
0.12533
-0.36812
-0.77051
-0.98229
-0.95106
-0.68455
-0.24869
0.24869
0.68455
0.95106
0.98229
0.77051
0.36812
-0.12533
-0.58779
-0.90483
-0.99803
-0.84433
-0.48175
0.00000
0.48175
0.84433
0.99803
0.90483
0.58779
0.12533
-0.36812
-0.77051
-0.98229
-0.95106
-0.68455
-0.24869
0.24869
0.68455
0.95106
0.98229
0.77051
0.36812
-0.12533
-0.58779
-0.90483
-0.99803
-0.84433
-0.48175
-0.00000
0.48175
0.84433
0.99803
0.90483
0.58779
0.12533
-0.36812
-0.77051
-0.98229
-0.95106
-0.68455
-0.24869
0.24869
0.68455
0.95106
0.98229
0.77051
0.36812
-0.12533
-0.58779
-0.90483
-0.99803
-0.84433
-0.48175
-0.00000
0.48175
0.84433
0.99803
0.90483
0.58779
0.12533
-0.36812
-0.77051
-0.98229
-0.95106
-0.68455
-0.24869
0.24869
0.68455
0.95106
0.98229
0.77051
0.36812
-0.12533
-0.58779
-0.90483
-0.99803
-0.84433
-0.48175
-0.00000
0.48175
0.84433
0.99803
0.90483
0.58779
0.12533
-0.36812
-0.77051
-0.98229
-0.95106
-0.68455
-0.24869
0.24869
0.68455
0.95106
0.98229
0.77051
0.36812
-0.12533
-0.58779
-0.90483
-0.99803
-0.84433
-0.48175
0.00000
0.48175
0.84433
0.99803
0.90483
0.58779
0.12533
-0.36812
-0.77051
-0.98229
-0.95106
-0.68455
-0.24869
0.24869
0.68455
0.95106
0.98229
0.77051
0.36812
-0.12533
-0.58779
-0.90483
-0.99803
-0.84433
-0.48175
-0.00000
0.48175
0.84433
0.99803
0.90483
0.58779
0.12533
-0.36812
-0.77051
-0.98229
-0.95106
-0.68455
-0.24869
0.24869
0.68455
0.95106
0.98229
0.77051
0.36812
-0.12533
-0.58779
-0.90483
-0.99803
-0.84433
-0.48175
0.00000
0.48175
0.84433
0.99803
0.90483
0.58779
0.12533
-0.36812
-0.77051
-0.98229
-0.95106
-0.68455
-0.24869
0.24869
0.68455
0.95106
0.98229
0.77051
0.36812
-0.12533
-0.58779
-0.90483
-0.99803
-0.84433
-0.48175
-0.00000
0.48175
0.84433
0.99803
0.90483
0.58779
0.12533
-0.36812
-0.77051
-0.98229
-0.95106
-0.68455
-0.24869
0.24869
0.68455
0.95106
0.98229
0.77051
0.36812
-0.12533
-0.58779
-0.90483
-0.99803
-0.84433
-0.48175
0.00000
0.48175
0.84433
0.99803
0.90483
0.58779
0.12533
-0.36812
-0.77051
-0.98229
-0.95106
-0.68455
-0.24869
0.24869
0.68455
0.95106
0.98229
0.77051
0.36812
-0.12533
-0.58779
-0.90483
-0.99803
-0.84433
-0.48175
-0.00000
0.48175
0.84433
0.99803
0.90483
0.58779
0.12533
-0.36812
-0.77051
-0.98229
-0.95106
-0.68455
-0.24869
0.24869
0.68455
0.95106
0.98229
0.77051
0.36812
-0.12533
-0.58779
-0.90483
-0.99803
-0.84433
-0.48175
-0.00000
0.48175
0.84433
0.99803
0.90483
0.58779
0.12533
-0.36812
-0.77051
-0.98229
-0.95106
-0.68455
-0.24869
0.24869
0.68455
0.95106
0.98229
0.77051
0.36812
-0.12533
-0.58779
-0.90483
-0.99803
-0.84433
-0.48175
0.00000
0.48175
0.84433
0.99803
0.90483
0.58779
0.12533
-0.36812
-0.77051
-0.98229
-0.95106
-0.68455
-0.24869
0.24869
0.68455
0.95106
0.98229
0.77051
0.36812
-0.12533
-0.58779
-0.90483
-0.99803
-0.84433
-0.48175
-0.00000
0.48175
0.84433
0.99803
0.90483
0.58779
0.12533
-0.36812
-0.77051
-0.98229
-0.95106
-0.68455
-0.24869
0.24869
0.68455
0.95106
0.98229
0.77051
0.36812
-0.12533
-0.58779
-0.90483
-0.99803
-0.84433
-0.48175
-0.00000
0.48175
0.84433
0.99803
0.90483
0.58779
0.12533
-0.36812
-0.77051
-0.98229
-0.95106
-0.68455
-0.24869
0.24869
0.68455
0.95106
0.98229
0.77051
0.36812
-0.12533
-0.58779
-0.90483
-0.99803
-0.84433
-0.48175
-0.00000
0.48175
0.84433
0.99803
0.90483
0.58779
0.12533
-0.36812
-0.77051
-0.98229
-0.95106
-0.68455
-0.24869
0.24869
0.68455
0.95106
0.98229
0.77051
0.36812
-0.12533
-0.58779
-0.90483
-0.99803
-0.84433
-0.48175
0.00000
0.48175
0.84433
0.99803
0.90483
0.58779
0.12533
-0.36812
-0.77051
-0.98229
-0.95106
-0.68455
-0.24869
0.24869
0.68455
0.95106
0.98229
0.77051
0.36812
-0.12533
-0.58779
-0.90483
-0.99803
-0.84433
-0.48175
0.00000
0.48175
0.84433
0.99803
0.90483
0.58779
0.12533
-0.36812
-0.77051
-0.98229
-0.95106
-0.68455
-0.24869
0.24869
0.68455
0.95106
0.98229
0.77051
0.36812
-0.12533
-0.58779
-0.90483
-0.99803
-0.84433
-0.48175
-0.00000
0.48175
0.84433
0.99803
0.90483
0.58779
0.12533
-0.36812
-0.77051
-0.98229
-0.95106
-0.68455
-0.24869
0.24869
0.68455
0.95106
0.98229
0.77051
0.36812
-0.12533
-0.58779
-0.90483
-0.99803
-0.84433
-0.48175
-0.00000
0.48175
0.84433
0.99803
0.90483
0.58779
0.12533
-0.36812
-0.77051
-0.98229
-0.95106
-0.68455
-0.24869
0.24869
0.68455
0.95106
0.98229
0.77051
0.36812
-0.12533
-0.58779
-0.90483
-0.99803
-0.84433
-0.48175
0.00000
0.48175
0.84433
0.99803
0.90483
0.58779
0.12533
-0.36812
-0.77051
-0.98229
-0.95106
-0.68455
-0.24869
0.24869
0.68455
0.95106
0.98229
0.77051
0.36812
-0.12533
-0.58779
-0.90483
-0.99803
-0.84433
-0.48175
0.00000
0.48175
0.84433
0.99803
0.90483
0.58779
0.12533
-0.36812
-0.77051
-0.98229
-0.95106
-0.68455
-0.24869
0.24869
0.68455
0.95106
0.98229
0.77051
0.36812
-0.12533
-0.58779
-0.90483
-0.99803
-0.84433
-0.48175
-0.00000
0.48175
0.84433
0.99803
0.90483
0.58779
0.12533
-0.36812
-0.77051
-0.98229
-0.95106
-0.68455
-0.24869
0.24869
0.68455
0.95106
0.98229
0.77051
0.36812
-0.12533
-0.58779
-0.90483
-0.99803
-0.84433
-0.48175
-0.00000
0.48175
0.84433
0.99803
0.90483
0.58779
0.12533
-0.36812
-0.77051
-0.98229
-0.95106
-0.68455
-0.24869
0.24869
0.68455
0.95106
0.98229
0.77051
0.36812
-0.12533
-0.58779
-0.90483
-0.99803
-0.84433
-0.48175
-0.00000
0.48175
0.84433
0.99803
0.90483
0.58779
0.12533
-0.36812
-0.77051
-0.98229
-0.95106
-0.68455
-0.24869
0.24869
0.68455
0.95106
0.98229
0.77051
0.36812
-0.12533
-0.58779
-0.90483
-0.99803
-0.84433
-0.48175
0.00000
0.48175
0.84433
0.99803
0.90483
0.58779
0.12533
-0.36812
-0.77051
-0.98229
-0.95106
-0.68455
-0.24869
0.24869
0.68455
0.95106
0.98229
0.77051
0.36812
-0.12533
-0.58779
-0.90483
-0.99803
-0.84433
-0.48175
-0.00000
0.48175
0.84433
0.99803
0.90483
0.58779
0.12533
-0.36812
-0.77051
-0.98229
-0.95106
-0.68455
-0.24869
0.24869
0.68455
0.95106
0.98229
0.77051
0.36812
-0.12533
-0.58779
-0.90483
-0.99803
-0.84433
-0.48175
0.00000
0.48175
0.84433
0.99803
0.90483
0.58779
0.12533
-0.36812
-0.77051
-0.98229
-0.95106
-0.68455
-0.24869
0.24869
0.68455
0.95106
0.98229
0.77051
0.36812
-0.12533
-0.58779
-0.90483
-0.99803
-0.84433
-0.48175
-0.00000
0.48175
0.84433
0.99803
0.90483
0.58779
0.12533
-0.36812
-0.77051
-0.98229
-0.95106
-0.68455
-0.24869
0.24869
0.68455
0.95106
0.98229
0.77051
0.36812
-0.12533
-0.58779
-0.90483
-0.99803
-0.84433
-0.48175
0.00000
0.48175
0.84433
0.99803
0.90483
0.58779
0.12533
-0.36812
-0.77051
-0.98229
-0.95106
-0.68455
-0.24869
0.24869
0.68455
0.95106
0.98229
0.77051
0.36812
-0.12533
-0.58779
-0.90483
-0.99803
-0.84433
-0.48175
-0.00000
0.48175
0.84433
0.99803
0.90483
0.58779
0.12533
-0.36812
-0.77051
-0.98229
-0.95106
-0.68455
-0.24869
0.24869
0.68455
0.95106
0.98229
0.77051
0.36812
-0.12533
-0.58779
-0.90483
-0.99803
-0.84433
-0.48175
0.00000
0.48175
0.84433
0.99803
0.90483
0.58779
0.12533
-0.36812
-0.77051
-0.98229
-0.95106
-0.68455
-0.24869
0.24869
0.68455
0.95106
0.98229
0.77051
0.36812
-0.12533
-0.58779
-0.90483
-0.99803
-0.84433
-0.48175
0.00000
0.48175
0.84433
0.99803
0.90483
0.58779
0.12533
-0.36812
-0.77051
-0.98229
-0.95106
-0.68455
-0.24869
0.24869
0.68455
0.95106
0.98229
0.77051
0.36812
-0.12533
-0.58779
-0.90483
-0.99803
-0.84433
-0.48175
-0.00000
0.48175
0.84433
0.99803
0.90483
0.58779
0.12533
-0.36812
-0.77051
-0.98229
-0.95106
-0.68455
-0.24869
0.24869
0.68455
0.95106
0.98229
0.77051
0.36812
-0.12533
-0.58779
-0.90483
-0.99803
-0.84433
-0.48175
-0.00000
0.48175
0.84433
0.99803
0.90483
0.58779
0.12533
-0.36812
-0.77051
-0.98229
-0.95106
-0.68455
-0.24869
0.24869
0.68455
0.95106
0.98229
0.77051
0.36812
-0.12533
